# Share%; N docs; %  over total scanned; host
100%;	 1;	 0.00;	 www.comune.ziano.tn.it
100%;	 1;	 0.00;	 www.comune.villarfocchiardo.to.it
100%;	 1;	 0.00;	 www.comune.venezia.it
100%;	 1;	 0.00;	 www.comune.sestu.ca.it
100%;	 1;	 0.00;	 www.comune.santaflavia.pa.it
100%;	 1;	 0.00;	 www.comune.rubiera.re.it/
100%;	 1;	 0.00;	 www.comuneroccasangiovanni.gov.it
100%;	 1;	 0.00;	 www.comune.robecchetto-con-induno.mi.it
100%;	 1;	 0.00;	 www.comune.pioraco.mc.it
100%;	 1;	 0.00;	 https://comune.orbassano.to.it/it
100%;	 1;	 0.00;	 comune.montedinove.ap.it
100%;	 1;	 0.00;	 www.comune.massa-e-cozzile.pt.it
100%;	 1;	 0.00;	 www.comune.mairago.lo.it
100%;	 1;	 0.00;	 www.comune.gubbio.pg.it
100%;	 1;	 0.00;	 www.comune.crespinalorenzana.pi.it
100%;	 1;	 0.00;	 www.comune.cernobbio.co.it
100%;	 1;	 0.00;	 www.comune.casteldelpiano.gr.it
100%;	 1;	 0.00;	 www.comune.valsamoggia.bo.it
100%;	 1;	 0.00;	 www.comune.barcellona-pozzo-di-gotto.me.it
100%;	 1;	 0.00;	 www.comune.albano.bg.it
100%;	 2;	 0.00;	 www.comune.segonzano.tn.it
100%;	 2;	 0.00;	 www.comune.sanvitodeinormanni.br.it
100%;	 2;	 0.00;	 www.comune.montemurlo.po.it
100%;	 2;	 0.00;	 www.comune.ittireddu.ss.it
100%;	 3;	 0.01;	 www.comune.sangiuseppejato.pa.it
100%;	 3;	 0.01;	 www.comune.mezzana.tn.it
100%;	 3;	 0.01;	 www.comune.cuveglio.va.it
100%;	 4;	 0.01;	 www.comune.villachiara.bs.it
100%;	 4;	 0.01;	 www.comune.montella.av.it
100%;	 5;	 0.01;	 www.comune.trento.it
100%;	 5;	 0.01;	 www.comune.fontanelle.tv.it
100%;	 6;	 0.01;	 www.comune.cinto.ve.it
100%;	 6;	 0.01;	 www.comune.boroneddu.or.it
100%;	 7;	 0.01;	 www.comune.concesio.brescia.it
100%;	 10;	 0.02;	 www.comune.nago-torbole.tn.it
100%;	 13;	 0.03;	 www.comune.tempiopausania.ot.it
100%;	 18;	 0.04;	 www.comune.sedilo.or.it/
100%;	 19;	 0.04;	 www.comune.pavullo-nel-frignano.mo.it
100%;	 21;	 0.04;	 www.comune.piombinodese.pd.it
98%;	 53;	 0.10;	 www.comune.bologna.it
92%;	 13;	 0.03;	 www.comune.fusignano.ra.it
92%;	 62;	 0.12;	 www.comune.berlingo.bs.it
88%;	 34;	 0.07;	 www.comune.portocesareo.le.it
75%;	 4;	 0.01;	 www.comune.rignano-sullarno.fi.it
75%;	 8;	 0.02;	 http://www.comune.rodengo-saiano.bs.it
73%;	 11;	 0.02;	 https://www.sanbiagiodellacima.gov.it/
73%;	 22;	 0.04;	 www.comune.goro.fe.it
72%;	 39;	 0.08;	 www.comune.megliadinosanvitale.pd.it
71%;	 7;	 0.01;	 www.comune.massalombarda.ra.it
71%;	 17;	 0.03;	 www.comune.bagnaradiromagna.ra.it
70%;	 20;	 0.04;	 www.comune.teleseterme.bn.it
69%;	 13;	 0.03;	 www.comune.fortedeimarmi.lu.it
68%;	 56;	 0.11;	 www.comune.mairano.bs.it
67%;	 3;	 0.01;	 www.comune.montelupo-fiorentino.fi.it
67%;	 6;	 0.01;	 www.comune.romanengo.cr.it
67%;	 6;	 0.01;	 www.comunediporcari.org
67%;	 15;	 0.03;	 www.comune.campomorone.ge.it
67%;	 18;	 0.04;	 www.comune.orani.nu.it
62%;	 52;	 0.10;	 www.comune.conselice.ra.it
60%;	 5;	 0.01;	 www.comune.santacroce.pi.it
60%;	 10;	 0.02;	 www.comune.novellara.re.it
60%;	 62;	 0.12;	 www.comune.castelleone.cr.it
59%;	 137;	 0.27;	 www.comune.gaggio-montano.bo.it
58%;	 84;	 0.16;	 www.comune.magliano-in-toscana.gr.it
57%;	 7;	 0.01;	 www.comune.luino.va.it
57%;	 7;	 0.01;	 www.comune.belveglio.at.it
57%;	 14;	 0.03;	 www.comune.rivoli.to.it
55%;	 11;	 0.02;	 www.comune.pezzaze.bs.it
50%;	 2;	 0.00;	 www.comune.vigonza.pd.it
50%;	 2;	 0.00;	 www.comune.vinci.fi.it
50%;	 2;	 0.00;	 www.policoro.basilicata.it
50%;	 2;	 0.00;	 www.comune.nardo.le.it
50%;	 2;	 0.00;	 www.comune.montecompatri.rm.gov.it
50%;	 2;	 0.00;	 www.comune.dovadola.fc.it
50%;	 2;	 0.00;	 www.comune.castilenti.te.it
50%;	 4;	 0.01;	 www.comune.spresiano.tv.it
50%;	 4;	 0.01;	 www.comune.porto-recanati.mc.it
50%;	 4;	 0.01;	 www.comune.fierozzo.tn.it
50%;	 4;	 0.01;	 www.comune.corridonia.mc.it
50%;	 6;	 0.01;	 www.comune.zolapredosa.bo.it
50%;	 12;	 0.02;	 www.comune.casalserugo.pd.it/
49%;	 134;	 0.26;	 www.comune.ghilarza.or.it
47%;	 49;	 0.10;	 www.comune.cene.bg.it
43%;	 23;	 0.05;	 www.comune.ziano.pc.it
43%;	 7;	 0.01;	 www.comune.lecce.it
43%;	 14;	 0.03;	 www.comune.cotignola.ra.it
42%;	 12;	 0.02;	 www.comune.udine.it
41%;	 68;	 0.13;	 www.comune.cusio.bg.it
40%;	 5;	 0.01;	 www.comune.sesto-fiorentino.fi.it
40%;	 5;	 0.01;	 www.comune.sedini.ss.it
40%;	 5;	 0.01;	 www.comune.polonghera.cn.it
40%;	 5;	 0.01;	 www.comune.lumezzane.bs.it
40%;	 5;	 0.01;	 www.comune.fenestrelle.to.it
40%;	 10;	 0.02;	 www.comune.scandicci.fi.it
38%;	 21;	 0.04;	 www.comune.pontedera.pi.it
37%;	 35;	 0.07;	 www.comune.castelbaldo.pd.it
37%;	 81;	 0.16;	 www.comune.melissano.le.it
37%;	 60;	 0.12;	 www.comune.sala-bolognese.bo.it/
36%;	 11;	 0.02;	 www.comune.commezzadura.tn.it
36%;	 14;	 0.03;	 www.comunecapriana.com
35%;	 17;	 0.03;	 www.comune.giarre.ct.it
35%;	 20;	 0.04;	 www.comunediroccagiovine.it
33%;	 3;	 0.01;	 www.comunevittoria.gov.it
33%;	 3;	 0.01;	 www.comune.soleto.le.it
33%;	 3;	 0.01;	 www.comune.sezze.lt.it
33%;	 3;	 0.01;	 www.comune.santa-croce-camerina.rg.it
33%;	 3;	 0.01;	 www.sanmaurocilento.gov.it
33%;	 3;	 0.01;	 www.comune.predazzo.tn.it
33%;	 3;	 0.01;	 www.comune.piraino.me.it
33%;	 3;	 0.01;	 www.comune.acibonaccorsi.ct.it
33%;	 6;	 0.01;	 www.comunegioiosamarea.gov.it/
33%;	 9;	 0.02;	 www.comune.orosei.nu.it
33%;	 9;	 0.02;	 www.comune.jesi.an.it
33%;	 12;	 0.02;	 www.comune.cerzeto.cs.it
31%;	 29;	 0.06;	 www.comune.capoterra.ca.it
31%;	 13;	 0.03;	 www.comune.vailate.cr.it
31%;	 26;	 0.05;	 www.comune.novalesa.to.it
30%;	 10;	 0.02;	 www.comune.licata.ag.it
29%;	 41;	 0.08;	 www.comune.valdizoldo.bl.it
29%;	 14;	 0.03;	 www.comune.costadimezzate.bg.it
29%;	 21;	 0.04;	 www.comune.vighizzolo.pd.it/
27%;	 11;	 0.02;	 www.comune.avio.tn.it
27%;	 55;	 0.11;	 www.comune.ponzanoveneto.tv.it
26%;	 19;	 0.04;	 www.comune.carpegna.pu.it
26%;	 90;	 0.18;	 www.savignano.it/
25%;	 4;	 0.01;	 www.comune.vescovana.pd.it
25%;	 4;	 0.01;	 www.comunepalomonte.sa.it
25%;	 4;	 0.01;	 www.comune.meri.me.it
25%;	 4;	 0.01;	 www.comune.gambara.bs.it
25%;	 4;	 0.01;	 www.comune.calice-ligure.sv.it
25%;	 4;	 0.01;	 www.comune.balangero.to.it
25%;	 8;	 0.02;	 www.comune.valnegra.bg.it
25%;	 8;	 0.02;	 www.comune.irma.bs.it
25%;	 8;	 0.02;	 www.comune.capralba.cr.it
25%;	 12;	 0.02;	 www.comune.montieri.gr.it
25%;	 12;	 0.02;	 www.comune.balvano.pz.it
25%;	 20;	 0.04;	 www.comune.fiave.tn.it
24%;	 41;	 0.08;	 www.comunediladispoli.it
24%;	 72;	 0.14;	 www.cervignanodelfriuli.net
24%;	 17;	 0.03;	 www.comune.savignano-sul-rubicone.fc.it
23%;	 26;	 0.05;	 www.comune.oleggiocastello.no.it
23%;	 88;	 0.17;	 www.comune.bagnacavallo.ra.it
22%;	 9;	 0.02;	 www.comune.calamonaci.ag.it
21%;	 14;	 0.03;	 www.comune.ubialeclanezzo.bg.it/
21%;	 19;	 0.04;	 www.comune.vallerotonda.fr.it
21%;	 39;	 0.08;	 www.comune.terni.it
20%;	 5;	 0.01;	 www.comune.tribano.pd.it
20%;	 5;	 0.01;	 www.comune.forlimpopoli.fc.it
20%;	 5;	 0.01;	 www.comune.conselve.pd.it
20%;	 5;	 0.01;	 www.comune.codevigo.pd.it
20%;	 5;	 0.01;	 www.comune.brallodipregola.pv.it
20%;	 5;	 0.01;	 www.comune.albiano.tn.it
20%;	 30;	 0.06;	 www.comune.tollo.ch.it
19%;	 21;	 0.04;	 www.comune.arenzano.ge.it
19%;	 16;	 0.03;	 www.comune.viterbo.it
19%;	 27;	 0.05;	 www.comune.piovedisacco.pd.it
18%;	 11;	 0.02;	 www.comune.nuvolera.bs.it
18%;	 11;	 0.02;	 www.comune.montelongo.cb.it
18%;	 11;	 0.02;	 www.comune.casanovalerrone.sv.it
18%;	 11;	 0.02;	 www.comune.brione.bs.it
18%;	 11;	 0.02;	 www.comune.bomporto.mo.it
18%;	 17;	 0.03;	 www.comune.serramanna.ca.it
17%;	 23;	 0.05;	 www.comune.scandiano.re.it
17%;	 6;	 0.01;	 www.comune.tortona.al.it
17%;	 6;	 0.01;	 www.comune.sover.tn.it
17%;	 6;	 0.01;	 www.comune.poggio-a-caiano.po.it
17%;	 6;	 0.01;	 www.comune.pancalieri.to.it
17%;	 6;	 0.01;	 www.comune.novaledo.tn.it
17%;	 6;	 0.01;	 www.comune.terenzo.pr.it
17%;	 6;	 0.01;	 www.comune.desenzano.brescia.it
17%;	 6;	 0.01;	 www.comune.cantiano.pu.it
17%;	 12;	 0.02;	 www.comune.piazzaarmerina.en.it
17%;	 12;	 0.02;	 www.comune.dovera.cr.it
17%;	 12;	 0.02;	 www.comune.beregazzoconfigliaro.co.it
17%;	 18;	 0.04;	 www.comune.quintano.cr.it
16%;	 19;	 0.04;	 www.comune.furnari.me.it
15%;	 13;	 0.03;	 www.comune.cittadella.pd.it
15%;	 26;	 0.05;	 www.comune.mezzolombardo.tn.it
15%;	 118;	 0.23;	 www.comune.succivo.ce.it
14%;	 14;	 0.03;	 www.comune.fiuminata.mc.it
14%;	 21;	 0.04;	 www.comune.bore.pr.it
14%;	 44;	 0.09;	 www.comunetuili.it
13%;	 15;	 0.03;	 comune.pescaglia.lu.it
13%;	 23;	 0.05;	 www.comune.ostellato.fe.it
13%;	 23;	 0.05;	 www.comune.montemaggiorebelsito.pa.it
13%;	 86;	 0.17;	 www.comune.druento.to.it
12%;	 8;	 0.02;	 www.ponzanodifermo.org
12%;	 8;	 0.02;	 www.comune.lavis.tn.it
12%;	 8;	 0.02;	 www.comunefontanaliri.fr.it
12%;	 16;	 0.03;	 www.comune.villorba.tv.it
12%;	 16;	 0.03;	 www.comune.torcegno.tn.it
12%;	 16;	 0.03;	 www.comune.ome.bs.it
12%;	 17;	 0.03;	 www.comune.nereto.te.it
12%;	 17;	 0.03;	 www.comune.mafalda.cb.it
12%;	 26;	 0.05;	 www.comune.terrassa.pd.it/
11%;	 9;	 0.02;	 www.comune.treia.mc.it
11%;	 9;	 0.02;	 www.comune.sanbiagio.tv.it
11%;	 9;	 0.02;	 https://www.comune.madignano.cr.it
11%;	 18;	 0.04;	 www.comune.spormaggiore.tn.it
11%;	 54;	 0.11;	 www.comune.melicucca.rc.it
11%;	 85;	 0.17;	 www.comune.fornovosangiovanni.bg.it
11%;	 19;	 0.04;	 www.comune.caorle.ve.it
11%;	 38;	 0.07;	 comune.sarmede.tv.it
10%;	 29;	 0.06;	 www.comune.castellinotanaro.cn.it
10%;	 39;	 0.08;	 www.comune.mombaruzzo.at.it
10%;	 59;	 0.12;	 www.comune.terzorio.im.it/
10%;	 69;	 0.14;	 www.comune.sporminore.tn.it
10%;	 10;	 0.02;	 https://www.comune.santantioco.ca.it
10%;	 10;	 0.02;	 www.comune.russi.ra.it
10%;	 10;	 0.02;	 www.comune.morolo.fr.it
10%;	 20;	 0.04;	 www.comune.saltrio.va.it
10%;	 30;	 0.06;	 comune.tenna.tn.it
10%;	 21;	 0.04;	 www.comune.ormelle.tv.it
10%;	 21;	 0.04;	 www.comune.concacasale.is.it/
9%;	 53;	 0.10;	 www.comune.adrano.ct.it
9%;	 43;	 0.08;	 www.comune.cellamare.ba.it
9%;	 11;	 0.02;	 www.comune.salzadipinerolo.to.it
9%;	 11;	 0.02;	 www.comune.savoia.pz.it
9%;	 11;	 0.02;	 www.comune.montagano.cb.it/
9%;	 11;	 0.02;	 www.comune.cantalupo.is.it/
9%;	 11;	 0.02;	 www.comune.aldeno.tn.it
9%;	 22;	 0.04;	 www.comune.sanginesio.mc.it
9%;	 33;	 0.06;	 www.comune.castagneto-carducci.li.it
9%;	 23;	 0.05;	 www.comune.marudo.lo.it
9%;	 23;	 0.05;	 www.comune.bastiglia.mo.it
9%;	 46;	 0.09;	 www.comune.massarosa.lu.it
9%;	 116;	 0.23;	 www.comune.rezzo.im.it
9%;	 35;	 0.07;	 www.comune.gualdo.mc.it
8%;	 12;	 0.02;	 www.comune.cogoleto.ge.it
8%;	 24;	 0.05;	 www.comune.guastalla.re.it
8%;	 25;	 0.05;	 www.comune.alezio.le.it
8%;	 13;	 0.03;	 www.comune.correggio.re.it
8%;	 13;	 0.03;	 www.comune.camerino.mc.it
8%;	 13;	 0.03;	 www.comune.amatrice.rieti.it
7%;	 27;	 0.05;	 www.comune.filottrano.an.it
7%;	 27;	 0.05;	 www.comune.crevalcore.bo.it
7%;	 14;	 0.03;	 www.comune.oratino.cb.it/
7%;	 14;	 0.03;	 www.comune.olmedo.ss.it
7%;	 14;	 0.03;	 www.comune.lavagna.ge.it
7%;	 43;	 0.08;	 www.comunepersiceto.it
7%;	 44;	 0.09;	 www.comunemomperone.it
7%;	 44;	 0.09;	 www.comune.arcidosso.gr.it
7%;	 15;	 0.03;	 www.comune.tredozio.fc.it
7%;	 15;	 0.03;	 www.santangelopiove.net
7%;	 15;	 0.03;	 www.comune.panchia.tn.it
7%;	 15;	 0.03;	 www.comune.paliano.fr.it
7%;	 30;	 0.06;	 www.comune.castelgabbiano.cr.it
6%;	 16;	 0.03;	 www.comune.plodio.sv.it
6%;	 16;	 0.03;	 www.comune.livo.tn.it
6%;	 16;	 0.03;	 www.comune.altare.sv.it
6%;	 65;	 0.13;	 www.comune.padria.ss.it
6%;	 17;	 0.03;	 www.comune.castrocarotermeeterradelsole.fc.it
6%;	 17;	 0.03;	 www.comune.brusaporto.bg.it
6%;	 70;	 0.14;	 www.comune.sanveromilis.or.it
6%;	 18;	 0.04;	 www.comune.villavallelonga.aq.it
6%;	 72;	 0.14;	 www.comune.santagatabolognese.bo.it
5%;	 19;	 0.04;	 https://www.comune.sangimignano.si.it
5%;	 19;	 0.04;	 www.comune.prali.to.it
5%;	 19;	 0.04;	 www.comune.barbaresco.cn.it
5%;	 20;	 0.04;	 www.comune.cercenasco.to.it
5%;	 40;	 0.08;	 www.comunedicapua.it
5%;	 21;	 0.04;	 www.comune.ripaltacremasca.cr.it
5%;	 21;	 0.04;	 www.comune.luserna.to.it
5%;	 43;	 0.08;	 www.montottone.eu
5%;	 22;	 0.04;	 www.comune.brandico.bs.it
4%;	 45;	 0.09;	 www.comune.santeliafiumerapido.fr.it
4%;	 45;	 0.09;	 www.comunebagnidilucca.com
4%;	 23;	 0.05;	 www.comune.santeufemiaamaiella.pe.it
4%;	 23;	 0.05;	 www.comune.roccella.rc.it/
4%;	 23;	 0.05;	 www.comune.grottammare.ap.it
4%;	 23;	 0.05;	 www.comune.canzano.te.it
4%;	 23;	 0.05;	 www.comune.calendasco.pc.it
4%;	 47;	 0.09;	 www.comune.campo-ligure.ge.it
4%;	 24;	 0.05;	 www.comune.ponso.pd.it
4%;	 24;	 0.05;	 www.comune.nonantola.mo.it
4%;	 49;	 0.10;	 www.comune.sostegno.bi.it/
4%;	 49;	 0.10;	 www.comune.chianni.pi.it
4%;	 98;	 0.19;	 www.comuneaidomaggiore.it
4%;	 26;	 0.05;	 www.comune.sorbolomezzani.pr.it
4%;	 26;	 0.05;	 www.comune.francavilla.ch.it
4%;	 80;	 0.16;	 www.comune.pianella.pe.it
4%;	 27;	 0.05;	 www.comune.pieve-a-nievole.pt.it
4%;	 27;	 0.05;	 www.comune.cerda.pa.it
4%;	 54;	 0.11;	 www.comune.moliniditriora.im.it
4%;	 55;	 0.11;	 www.comunevillarpellice.it
4%;	 28;	 0.05;	 www.comune.perrero.to.it
4%;	 57;	 0.11;	 www.comune.golasecca.va.it
3%;	 29;	 0.06;	 www.comune.santeramo.ba.it
3%;	 59;	 0.12;	 www.comune.torricella.ta.it
3%;	 30;	 0.06;	 http://www.comunedipetina.it/
3%;	 30;	 0.06;	 www.comune.montepulciano.si.it
3%;	 60;	 0.12;	 www.comune.san-costanzo.pu.it
3%;	 61;	 0.12;	 www.comune.nosate.mi.it
3%;	 31;	 0.06;	 www.comune.radicondoli.siena.it
3%;	 31;	 0.06;	 www.comune.piasco.cn.it
3%;	 63;	 0.12;	 www.comune.somaglia.lo.it
3%;	 32;	 0.06;	 www.comune.fabro.tr.it
3%;	 64;	 0.13;	 www.comune.cembralisignago.tn.it
3%;	 35;	 0.07;	 www.comune.roccavione.cn.it
3%;	 38;	 0.07;	 www.comunedisantamarina.org
3%;	 78;	 0.15;	 www.comune.villarperosa.to.it
2%;	 41;	 0.08;	 www.comunedicupello.it
2%;	 85;	 0.17;	 www.comune.massimino.sv.it
2%;	 129;	 0.25;	 www.comune.offanengo.cr.it
2%;	 44;	 0.09;	 www.comune.santalbanostura.cn.it
2%;	 44;	 0.09;	 www.comune.lombriasco.to.it
2%;	 46;	 0.09;	 www.comune.orcianopisano.pi.it
2%;	 139;	 0.27;	 www.comune.scopello.vc.it
2%;	 93;	 0.18;	 www.comune.marene.cn.it
2%;	 97;	 0.19;	 www.comune.prarolo.vc.it
2%;	 49;	 0.10;	 www.comune.stroppo.cn.it
2%;	 49;	 0.10;	 www.comune.rimella.vc.it
2%;	 102;	 0.20;	 www.comune.villanova-mondovi.cn.it
2%;	 52;	 0.10;	 www.comune.marmora.cn.it
2%;	 162;	 0.32;	 www.comune.carpeneto.al.it
2%;	 55;	 0.11;	 comune.pettineo.me.it
2%;	 55;	 0.11;	 https://www.comune.castelfranco.pi.it
2%;	 58;	 0.11;	 www.comune.mioglia.sv.it
2%;	 58;	 0.11;	 www.comune.bucine.ar.it
2%;	 60;	 0.12;	 www.comune.montegrimanoterme.pu.it
2%;	 60;	 0.12;	 www.comune.andornomicca.bi.it
2%;	 60;	 0.12;	 www.comune.alessandriadelcarretto.cs.it
2%;	 61;	 0.12;	 www.comune.somano.cn.it
2%;	 62;	 0.12;	 www.comune.mercatellosulmetauro.pu.it
2%;	 124;	 0.24;	 www.comune.cumiana.to.it
2%;	 65;	 0.13;	 www.comune.montecchio-emilia.re.it/
1%;	 72;	 0.14;	 www.comune.curtarolo.pd.it
1%;	 80;	 0.16;	 www.comune.carignano.to.it
1%;	 91;	 0.18;	 www.comune.priero.cn.it
1%;	 182;	 0.36;	 www.comune.monteurano.fm.it
1%;	 106;	 0.21;	 www.comune.serravallesesia.vc.it
1%;	 118;	 0.23;	 www.comune.vesime.at.it
1%;	 118;	 0.23;	 www.comune.campobellodilicata.ag.it
1%;	 119;	 0.23;	 www.comune.sorradile.or.it
1%;	 128;	 0.25;	 www.comune.comignago.no.it
1%;	 130;	 0.25;	 www.comune.trisobbio.al.it
1%;	 137;	 0.27;	 www.comune.siris.or.it/
1%;	 144;	 0.28;	 www.comune.fossombrone.ps.it/
0%;	 1;	 0.00;	 www.comune.altorenoterme.bo.it
0%;	 1;	 0.00;	 www.comune.volvera.to.it
0%;	 1;	 0.00;	 www.comune.volturino.fg.it
0%;	 1;	 0.00;	 www.comune.villanova.lo.it
0%;	 1;	 0.00;	 www.comune.vigano-san-martino.bg.it
0%;	 1;	 0.00;	 www.comune.vergiate.va.it
0%;	 1;	 0.00;	 www.comune.vallecastellana.te.it
0%;	 1;	 0.00;	 www.comune.valdinizza.pv.it
0%;	 1;	 0.00;	 www.comune.varcosabino.ri.it
0%;	 1;	 0.00;	 www.comune.trino.vc.it
0%;	 1;	 0.00;	 www.comune.trigolo.cr.it
0%;	 1;	 0.00;	 www.comune.valenzano.ba.it
0%;	 1;	 0.00;	 www.comune.ucria.me.it
0%;	 1;	 0.00;	 www.comune.trevico.av.it
0%;	 1;	 0.00;	 www.comune.trequanda.siena.it
0%;	 1;	 0.00;	 www.comune.tiggiano.le.it
0%;	 1;	 0.00;	 www.comune.teulada.ca.it
0%;	 1;	 0.00;	 www.comune.taranto.it
0%;	 1;	 0.00;	 www.comune.surbo.le.it
0%;	 1;	 0.00;	 www.comune.stresa.vb.it
0%;	 1;	 0.00;	 www.comune.stezzano.bg.it
0%;	 1;	 0.00;	 www.comune.spinetoli.ap.it
0%;	 1;	 0.00;	 www.comune.sondrio.it
0%;	 1;	 0.00;	 www.comune.solaro.mi.it
0%;	 1;	 0.00;	 www.comune.spinazzola.bt.it
0%;	 1;	 0.00;	 www.comune.signa.fi.it
0%;	 1;	 0.00;	 www.comune.sezzadio.al.it
0%;	 1;	 0.00;	 www.comune.soglio.at.it
0%;	 1;	 0.00;	 www.comune.settimo-torinese.to.it
0%;	 1;	 0.00;	 www.comune.sestocampano.is.it
0%;	 1;	 0.00;	 www.comune.segrate.mi.it
0%;	 1;	 0.00;	 www.comunediscisciano.eu
0%;	 1;	 0.00;	 www.comune.serravalledichienti.mc.it
0%;	 1;	 0.00;	 www.comune.segusino.tv.it
0%;	 1;	 0.00;	 www.comune.selegas.ca.it
0%;	 1;	 0.00;	 www.comune.sarezzo.bs.it
0%;	 1;	 0.00;	 www.comune.santavenerina.ct.it
0%;	 1;	 0.00;	 www.comune.santamarianuova.an.it
0%;	 1;	 0.00;	 www.comune.sanvenanzo.tr.it
0%;	 1;	 0.00;	 www.comune.santamariadilicodia.ct.it
0%;	 1;	 0.00;	 www.comune.santomenna.sa.it
0%;	 1;	 0.00;	 www.comune.sanseverinomarche.mc.it
0%;	 1;	 0.00;	 www.comune.sansperate.ca.it
0%;	 1;	 0.00;	 www.comune.santagiuletta.pv.it
0%;	 1;	 0.00;	 www.sangiovannilapunta.gov.it
0%;	 1;	 0.00;	 www.spv.br.it
0%;	 1;	 0.00;	 www.comune.sandonatomilanese.mi.it
0%;	 1;	 0.00;	 www.sanmarzano-ta.gov.it/
0%;	 1;	 0.00;	 www.comune.sanmarcolacatola.fg.it
0%;	 1;	 0.00;	 www.comune.salvirola.cr.it
0%;	 1;	 0.00;	 www.comune.roncola.bg.it
0%;	 1;	 0.00;	 www.comune.saintoyen.ao.it
0%;	 1;	 0.00;	 http://www.comune.sanvitoromano.rm.it/
0%;	 1;	 0.00;	 www.comune.roccaimperiale.cs.it
0%;	 1;	 0.00;	 www.comune.riccodelgolfo.sp.it
0%;	 1;	 0.00;	 www.comune.roccaforzata.ta.it/
0%;	 1;	 0.00;	 www.comune.robilante.cn.it
0%;	 1;	 0.00;	 www.comune.robeccopavese.pv.it/
0%;	 1;	 0.00;	 www.comune.robassomero.to.it
0%;	 1;	 0.00;	 www.comune.ricigliano.sa.it
0%;	 1;	 0.00;	 www.comune.pozzonovo.pd.it/
0%;	 1;	 0.00;	 www.comune.popoli.pe.it
0%;	 1;	 0.00;	 www.comune.poveglianoveronese.vr.it
0%;	 1;	 0.00;	 www.comune.porto-torres.ss.it
0%;	 1;	 0.00;	 www.comune.pozzuolomartesana.mi.it
0%;	 1;	 0.00;	 www.comune.poggiocatino.ri.it
0%;	 1;	 0.00;	 www.comune.ponza.lt.it
0%;	 1;	 0.00;	 http://www.comune.piobesidalba.cn.it/
0%;	 1;	 0.00;	 www.comune.pievetorina.mc.it
0%;	 1;	 0.00;	 www.comune.poggiomirteto.ri.it
0%;	 1;	 0.00;	 www.comune.pietraperzia.en.it
0%;	 1;	 0.00;	 www.comune.piatto.bi.it
0%;	 1;	 0.00;	 www.comune.pasiandiprato.ud.it
0%;	 1;	 0.00;	 www.comune.paladina.bg.it
0%;	 1;	 0.00;	 www.comune.ostuni.br.it
0%;	 1;	 0.00;	 www.comune.ornica.bg.it
0%;	 1;	 0.00;	 www.comune.palazzolovercellese.vc.it
0%;	 1;	 0.00;	 www.comune.orbetello.gr.it
0%;	 1;	 0.00;	 www.comune.ortueri.nu.it
0%;	 1;	 0.00;	 www.comune.noicattaro.bari.it
0%;	 1;	 0.00;	 www.comune.nettuno.roma.it
0%;	 1;	 0.00;	 www.comunedinespolo.it
0%;	 1;	 0.00;	 www.nembro.net
0%;	 1;	 0.00;	 www.comune.pineto.te.it
0%;	 1;	 0.00;	 www.comune.mottavisconti.mi.it
0%;	 1;	 0.00;	 www.comune.nizzadisicilia.me.it
0%;	 1;	 0.00;	 www.nazzano.rm.gov.it
0%;	 1;	 0.00;	 www.comune.morbegno.so.it
0%;	 1;	 0.00;	 www.comune.moschiano.av.it
0%;	 1;	 0.00;	 www.comune.potenza-picena.mc.it
0%;	 1;	 0.00;	 www.comune.roseto.te.it
0%;	 1;	 0.00;	 www.comune.pollenza.mc.it
0%;	 1;	 0.00;	 https://www.comune.monterchi.ar.it/
0%;	 1;	 0.00;	 www.comune.monticiano.si.it
0%;	 1;	 0.00;	 www.comune.montefiascone.vt.it
0%;	 1;	 0.00;	 www.comune.montecosaro.mc.it
0%;	 1;	 0.00;	 www.comune.monteporziocatone.rm.it
0%;	 1;	 0.00;	 www.comune.montecassiano.mc.it
0%;	 1;	 0.00;	 www.comune.mondragone.ce.it
0%;	 1;	 0.00;	 www.comune.montecerignone.pu.it
0%;	 1;	 0.00;	 www.comune.montecalvoirpino.av.it
0%;	 1;	 0.00;	 www.comune.molfetta.ba.it
0%;	 1;	 0.00;	 www.comune.miggiano.le.it
0%;	 1;	 0.00;	 www.comune.merate.lc.it
0%;	 1;	 0.00;	 www.comune.mirabellaimbaccari.ct.it/
0%;	 1;	 0.00;	 www.comune.modugno.ba.it
0%;	 1;	 0.00;	 http://www.comune.masio.al.it/
0%;	 1;	 0.00;	 www.comunemelfi.it
0%;	 1;	 0.00;	 www.comune.melendugno.le.it
0%;	 1;	 0.00;	 www.comune.marcon.ve.it
0%;	 1;	 0.00;	 www.comune.marano.na.it
0%;	 1;	 0.00;	 www.comune.mantova.gov.it
0%;	 1;	 0.00;	 www.comune.marradi.fi.it/
0%;	 1;	 0.00;	 www.comune.maltignano.ap.it/
0%;	 1;	 0.00;	 www.comune.malnate.va.it
0%;	 1;	 0.00;	 www.comune.malfa.me.it
0%;	 1;	 0.00;	 www.comune.manfredonia.fg.it
0%;	 1;	 0.00;	 www.comune.malito.cs.it
0%;	 1;	 0.00;	 www.comune.luzzana.bg.it
0%;	 1;	 0.00;	 www.comune.lugnanointeverina.tr.it
0%;	 1;	 0.00;	 www.comune.lonato.bs.it
0%;	 1;	 0.00;	 www.comune.linarolo.pv.it
0%;	 1;	 0.00;	 www.comune.lula.nu.it
0%;	 1;	 0.00;	 www.comune.levate.bg.it
0%;	 1;	 0.00;	 www.comune.lauriano.to.it
0%;	 1;	 0.00;	 www.comune.labico.rm.gov.it
0%;	 1;	 0.00;	 www.comune.jelsi.cb.it
0%;	 1;	 0.00;	 www.comune.istrana.tv.it
0%;	 1;	 0.00;	 www.comune.irsina.mt.it
0%;	 1;	 0.00;	 www.labro.gov.it
0%;	 1;	 0.00;	 www.comune.grumoappula.ba.it
0%;	 1;	 0.00;	 www.comune.ginestra.pz.it
0%;	 1;	 0.00;	 www.comune.gorianosicoli.aq.it
0%;	 1;	 0.00;	 www.comune.giardini-naxos.me.it
0%;	 1;	 0.00;	 www.comune.gesturi.vs.it
0%;	 1;	 0.00;	 www.comune.gazzo.pd.it
0%;	 1;	 0.00;	 www.comune.godiascosaliceterme.pv.it
0%;	 1;	 0.00;	 www.comune.gardonevaltrompia.bs.it
0%;	 1;	 0.00;	 www.comune.viticuso.fr.it
0%;	 1;	 0.00;	 www.comune.gerace.rc.it
0%;	 1;	 0.00;	 www.comune.fusine.so.it
0%;	 1;	 0.00;	 www.comune.francolise.ce.it
0%;	 1;	 0.00;	 www.comune.galliate.no.it/
0%;	 1;	 0.00;	 www.comune.fondachellifantina.me.it
0%;	 1;	 0.00;	 www.comune.fiumedinisi.me.it
0%;	 1;	 0.00;	 www.comune.ficarolo.ro.it
0%;	 1;	 0.00;	 www.comune.fenis.ao.it
0%;	 1;	 0.00;	 www.comune.ficulle.tr.it
0%;	 1;	 0.00;	 www.comune.erbusco.bs.it
0%;	 1;	 0.00;	 www.comune.teggiano.sa.it
0%;	 1;	 0.00;	 www.comune-diamante.it
0%;	 1;	 0.00;	 www.comune.cusago.mi.it/
0%;	 1;	 0.00;	 www.comune.cureggio.no.it
0%;	 1;	 0.00;	 www.comune.curinga.cz.it
0%;	 1;	 0.00;	 www.comune.crosiodellavalle.va.it
0%;	 1;	 0.00;	 www.comune.cuassoalmonte.va.it
0%;	 1;	 0.00;	 www.comune.crissolo.cn.it
0%;	 1;	 0.00;	 www.comune.cusano-milanino.mi.it
0%;	 1;	 0.00;	 www.comune.cupra-marittima.ap.it
0%;	 1;	 0.00;	 http://www.comune.crispiano.ta.it
0%;	 1;	 0.00;	 www.comunecostermano.it
0%;	 1;	 0.00;	 www.comune.creazzo.vi.it
0%;	 1;	 0.00;	 www.comune.como.it
0%;	 1;	 0.00;	 www.comune.corzano.bs.it
0%;	 1;	 0.00;	 www.comune.colliano.sa.it
0%;	 1;	 0.00;	 www.comune.cornalba.bg.it
0%;	 1;	 0.00;	 www.comune.colognoalserio.bg.it
0%;	 1;	 0.00;	 www.comune.cinquefrondi.rc.it
0%;	 1;	 0.00;	 www.comune.chignolopo.pv.it
0%;	 1;	 0.00;	 www.comune.ciromarina.kr.it
0%;	 1;	 0.00;	 www.comune.cingoli.mc.it
0%;	 1;	 0.00;	 www.comune.chiusanodasti.at.it
0%;	 1;	 0.00;	 www.comune.ceneselli.ro.it
0%;	 1;	 0.00;	 www.comune.cenatesotto.bg.it
0%;	 1;	 0.00;	 www.comune.chianocco.to.it
0%;	 1;	 0.00;	 www.comune.cavenagobrianza.mb.it
0%;	 1;	 0.00;	 www.comune.cereseto.al.it
0%;	 1;	 0.00;	 www.comune.isoladifondra.bg.it
0%;	 1;	 0.00;	 https://www.comune.catanzaro.it
0%;	 1;	 0.00;	 www.comune.cerreto-guidi.fi.it
0%;	 1;	 0.00;	 www.comune.castorano.ap.it
0%;	 1;	 0.00;	 http://www.comune.castiglionfiorentino.ar.it
0%;	 1;	 0.00;	 www.comune.castionsdistrada.ud.it
0%;	 1;	 0.00;	 https://www.comune.castelfidardo.an.it
0%;	 1;	 0.00;	 www.comune.castelfiorentino.fi.it
0%;	 1;	 0.00;	 www.comune.casteldario.mn.it
0%;	 1;	 0.00;	 www.cassano-magnago.it
0%;	 1;	 0.00;	 www.comune.cascia.pg.it
0%;	 1;	 0.00;	 www.comune.casamassima.ba.it
0%;	 1;	 0.00;	 www.comune.capo-di-ponte.bs.it
0%;	 1;	 0.00;	 www.comune.calatafimisegesta.tp.it
0%;	 1;	 0.00;	 www.comune.castellocabiaglio.va.it
0%;	 1;	 0.00;	 www.comune.campagnatico.gr.it
0%;	 1;	 0.00;	 comune.buriasco.to.it
0%;	 1;	 0.00;	 www.comune.buccino.sa.it
0%;	 1;	 0.00;	 www.comune.buttigliera.at.it
0%;	 1;	 0.00;	 https://www.comune.bonassola.sp.it/hh/index.php
0%;	 1;	 0.00;	 www.comune.bracigliano.sa.it/
0%;	 1;	 0.00;	 www.comune.boltiere.bg.it
0%;	 1;	 0.00;	 www.comune.bolognola.mc.it
0%;	 1;	 0.00;	 www.comune.borgomaro.im.it
0%;	 1;	 0.00;	 www.comune.bolgare.bg.it
0%;	 1;	 0.00;	 www.comune.bortigali.nu.it
0%;	 1;	 0.00;	 www.comune.boretto.re.it
0%;	 1;	 0.00;	 www.comune.bagnolocremasco.cr.it
0%;	 1;	 0.00;	 www.comune.bellano.lc.it
0%;	 1;	 0.00;	 www.comune.bagno-a-ripoli.fi.it
0%;	 1;	 0.00;	 www.comune.bagnolodelsalento.le.it
0%;	 1;	 0.00;	 www.comune.bagnatica.bg.it
0%;	 1;	 0.00;	 www.comune.avellino.it
0%;	 1;	 0.00;	 www.comune.asso.co.it
0%;	 1;	 0.00;	 www.comune.arsagoseprio.va.it
0%;	 1;	 0.00;	 www.comune.bagnariaarsa.ud.it
0%;	 1;	 0.00;	 www.comune.aquino.fr.it/home/
0%;	 1;	 0.00;	 www.comune.arzergrande.pd.it
0%;	 1;	 0.00;	 www.comunedianacapri.it
0%;	 1;	 0.00;	 www.comune.altissimo.vi.it
0%;	 1;	 0.00;	 www.comune.almenno-san-salvatore.bg.it
0%;	 1;	 0.00;	 www.comunediandali.it
0%;	 1;	 0.00;	 www.comune.anagni.fr.it
0%;	 1;	 0.00;	 www.comune.airuno.lc.it
0%;	 1;	 0.00;	 www.comune.afragola.na.it
0%;	 1;	 0.00;	 www.comune.adrarasm.bg.it
0%;	 1;	 0.00;	 www.comune.acquafondata.fr.it
0%;	 2;	 0.00;	 www.comune.massadisomma.na.it
0%;	 2;	 0.00;	 www.comune.maniace.ct.it/
0%;	 2;	 0.00;	 www.comune.pievedelgrappa.tv.it
0%;	 2;	 0.00;	 www.comunevivaroromano.it
0%;	 2;	 0.00;	 www.comune.vallefoglia.pu.it
0%;	 2;	 0.00;	 www.comune.villacidro.vs.it
0%;	 2;	 0.00;	 www.comune.vittorio-veneto.tv.it
0%;	 2;	 0.00;	 www.comune.villaestense.pd.it
0%;	 2;	 0.00;	 www.comune.roccapalumba.pa.it
0%;	 2;	 0.00;	 www.comune.viadanica.bg.it
0%;	 2;	 0.00;	 www.comune.verrayes.ao.it
0%;	 2;	 0.00;	 http://www.comune.villaliterno.ce.it
0%;	 2;	 0.00;	 www.comune.valtorta.bg.it
0%;	 2;	 0.00;	 www.comune.verucchio.rn.it
0%;	 2;	 0.00;	 www.comune.valeggio.pv.it
0%;	 2;	 0.00;	 www.comune.urbino.pu.it
0%;	 2;	 0.00;	 www.comune.trivigliano.fr.it
0%;	 2;	 0.00;	 www.comune.trentinara.sa.it
0%;	 2;	 0.00;	 www.comune.trappeto.pa.it
0%;	 2;	 0.00;	 www.comune.trovo.pv.it
0%;	 2;	 0.00;	 www.comunetorrevecchiateatina.it
0%;	 2;	 0.00;	 www.comune.torbole-casaglia.bs.it
0%;	 2;	 0.00;	 www.comune.tezze.vi.it
0%;	 2;	 0.00;	 www.comune.torrita.siena.it
0%;	 2;	 0.00;	 http://www.comune.teano.ce.it/
0%;	 2;	 0.00;	 www.lusernetta.gov.it
0%;	 2;	 0.00;	 www.comune.stra.ve.it
0%;	 2;	 0.00;	 www.comune.staiti.rc.it
0%;	 2;	 0.00;	 www.comune.sutri.vt.it
0%;	 2;	 0.00;	 www.comune.siano.sa.it
0%;	 2;	 0.00;	 www.comune.siculiana.ag.it
0%;	 2;	 0.00;	 www.comune.sergnano.cr.it
0%;	 2;	 0.00;	 www.comune.senago.mi.it
0%;	 2;	 0.00;	 www.comune.santostefanodelsole.av.it
0%;	 2;	 0.00;	 www.comune.santilariodenza.re.it
0%;	 2;	 0.00;	 www.santangelomuxaro.gov.it
0%;	 2;	 0.00;	 www.comune.santamarinella.rm.it/
0%;	 2;	 0.00;	 www.comunedisanremo.it
0%;	 2;	 0.00;	 www.comune.sanpossidonio.mo.it
0%;	 2;	 0.00;	 www.comune.sangiuseppevesuviano.na.it
0%;	 2;	 0.00;	 www.comune.san-cataldo.cl.it
0%;	 2;	 0.00;	 www.comune.rovolon.pd.it
0%;	 2;	 0.00;	 www.comune.rognano.pv.it
0%;	 2;	 0.00;	 www.comune.roccadipapa.rm.it
0%;	 2;	 0.00;	 www.comune.rivoltadadda.cr.it
0%;	 2;	 0.00;	 www.comune.roletto.to.it
0%;	 2;	 0.00;	 www.comune.ripacandida.pz.it
0%;	 2;	 0.00;	 www.comune.rapolanoterme.si.it/
0%;	 2;	 0.00;	 www.comune.refrancore.at.it
0%;	 2;	 0.00;	 www.comunereitano.com
0%;	 2;	 0.00;	 www.comune.preseglie.bs.it
0%;	 2;	 0.00;	 www.comune.pratolaserra.av.it
0%;	 2;	 0.00;	 www.comune.praiano.sa.it
0%;	 2;	 0.00;	 www.comune.prunetto.cn.it
0%;	 2;	 0.00;	 www.comune.priola.cn.it
0%;	 2;	 0.00;	 www.comune.pozzagliasabina.ri.it
0%;	 2;	 0.00;	 www.comune.povoletto.ud.it
0%;	 2;	 0.00;	 www.comune.pisa.it
0%;	 2;	 0.00;	 www.comune.pieveportomorone.pv.it
0%;	 2;	 0.00;	 www.comune.perticabassa.bs.it
0%;	 2;	 0.00;	 www.comune.piaggine.sa.it
0%;	 2;	 0.00;	 www.comune.pegognaga.mn.it
0%;	 2;	 0.00;	 http://pedivigliano.asmenet.it/
0%;	 2;	 0.00;	 www.comune.palazzuolo-sul-senio.fi.it
0%;	 2;	 0.00;	 www.comune.oricola.aq.it
0%;	 2;	 0.00;	 www.comune.ortignano-raggiolo.ar.it
0%;	 2;	 0.00;	 www.comune.oggionaconsantostefano.va.it
0%;	 2;	 0.00;	 www.comune.oria.br.it
0%;	 2;	 0.00;	 www.comune.nerviano.mi.it
0%;	 2;	 0.00;	 www.comune.morozzo.cn.it
0%;	 2;	 0.00;	 www.comune.mornese.al.it
0%;	 2;	 0.00;	 www.comune.montespertoli.fi.it
0%;	 2;	 0.00;	 www.comune.morino.aq.it
0%;	 2;	 0.00;	 www.comune.montecavallo.mc.it
0%;	 2;	 0.00;	 www.comune.montalbano.mt.it
0%;	 2;	 0.00;	 www.comune.montechiarodasti.at.it
0%;	 2;	 0.00;	 www.comune.mongiana.vv.it
0%;	 2;	 0.00;	 www.comune.moliterno.pz.it
0%;	 2;	 0.00;	 www.comune.modigliana.fc.it
0%;	 2;	 0.00;	 www.comune.minori.sa.it
0%;	 2;	 0.00;	 www.comune.mezzanino.pv.it
0%;	 2;	 0.00;	 www.comune.mesoraca.gov.it
0%;	 2;	 0.00;	 www.comune.militellorosmarino.me.it
0%;	 2;	 0.00;	 www.comune.marmentino.bs.it
0%;	 2;	 0.00;	 www.comune.marciana.li.it
0%;	 2;	 0.00;	 www.comune.maranoprincipato.cs.it
0%;	 2;	 0.00;	 www.comune.macherio.mb.it
0%;	 2;	 0.00;	 www.comune.lumarzo.genova.it
0%;	 2;	 0.00;	 www.comune.lucito.cb.it
0%;	 2;	 0.00;	 comune.loretoaprutino.pe.it
0%;	 2;	 0.00;	 www.comune.lasalle.ao.it
0%;	 2;	 0.00;	 www.comune.jovencan.ao.it
0%;	 2;	 0.00;	 www.comunelamon.it
0%;	 2;	 0.00;	 www.comuneisolabona.it
0%;	 2;	 0.00;	 www.comune.grantola.va.it
0%;	 2;	 0.00;	 www.comune.granze.pd.it/
0%;	 2;	 0.00;	 www.comune.gambasca.cn.it
0%;	 2;	 0.00;	 www.comune.furore.sa.it
0%;	 2;	 0.00;	 www.comune.gavardo.bs.it
0%;	 2;	 0.00;	 www.comune.forli.fc.it
0%;	 2;	 0.00;	 www.comune.fluminimaggiore.ca.it
0%;	 2;	 0.00;	 www.comunediflumeri.it
0%;	 2;	 0.00;	 www.comune.fontanafredda.pn.it
0%;	 2;	 0.00;	 www.comune.dossena.bg.it
0%;	 2;	 0.00;	 www.comune.decimoputzu.ca.it
0%;	 2;	 0.00;	 comune.dipignano.cs.it
0%;	 2;	 0.00;	 www.comune.cursi.le.it
0%;	 2;	 0.00;	 www.comune.dianoarentino.im.it
0%;	 2;	 0.00;	 comune.cossignano.ap.it
0%;	 2;	 0.00;	 www.comune.corteno-golgi.bs.it
0%;	 2;	 0.00;	 www.comunecosiodiarroscia.info
0%;	 2;	 0.00;	 www.comune.crispano.na.it
0%;	 2;	 0.00;	 www.comune.costigliole.at.it
0%;	 2;	 0.00;	 www.comune.cogne.ao.it
0%;	 2;	 0.00;	 www.comune.concerviano.ri.it
0%;	 2;	 0.00;	 www.cividatecamuno.gov.it
0%;	 2;	 0.00;	 www.comune.cis.tn.it
0%;	 2;	 0.00;	 www.comune.chiari.brescia.it
0%;	 2;	 0.00;	 www.comune.chiavenna.so.it
0%;	 2;	 0.00;	 www.comune.cetona.siena.it
0%;	 2;	 0.00;	 www.comune.cessole.at.it
0%;	 2;	 0.00;	 www.comune.cellinosanmarco.br.it
0%;	 2;	 0.00;	 www.comune.castrocielo.fr.it
0%;	 2;	 0.00;	 www.comune.castrignanodeigreci.le.it
0%;	 2;	 0.00;	 www.comune.castelsanpietroterme.bo.it/
0%;	 2;	 0.00;	 www.comune.castel-san-niccolo.ar.it
0%;	 2;	 0.00;	 www.comune.casciago.va.it
0%;	 2;	 0.00;	 www.comune.casarano.le.it
0%;	 2;	 0.00;	 www.comune.casalecchio.bo.it
0%;	 2;	 0.00;	 www.comune.caravonica.im.it
0%;	 2;	 0.00;	 www.comune.capriate-san-gervasio.bg.it
0%;	 2;	 0.00;	 www.comune.cappelladepicenardi.cr.it/
0%;	 2;	 0.00;	 www.comune.calvenzano.bg.it
0%;	 2;	 0.00;	 comune.caldonazzo.tn.it
0%;	 2;	 0.00;	 www.comune.calasetta.ci.it
0%;	 2;	 0.00;	 www.comune.busseto.pr.it
0%;	 2;	 0.00;	 www.comune.brenta.va.it
0%;	 2;	 0.00;	 www.comune.bovegno.bs.it
0%;	 2;	 0.00;	 www.comune.fidenza.pr.it/
0%;	 2;	 0.00;	 www.comune.borgo-di-terzo.bg.it
0%;	 2;	 0.00;	 www.comune.bompietro.pa.it
0%;	 2;	 0.00;	 www.comune.borgomale.cn.it
0%;	 2;	 0.00;	 www.comune.bergamo.it
0%;	 2;	 0.00;	 www.comune.bobbiopellice.to.it
0%;	 2;	 0.00;	 www.comune.bauladu.or.it
0%;	 2;	 0.00;	 www.comune.sangiulianoterme.pisa.it
0%;	 2;	 0.00;	 www.comunedicasperia.it
0%;	 2;	 0.00;	 www.comune.asciano.siena.it
0%;	 2;	 0.00;	 www.comune.arnad.ao.it
0%;	 2;	 0.00;	 www.comune.arcene.bg.it
0%;	 2;	 0.00;	 www.comune.arborea.or.it
0%;	 2;	 0.00;	 www.comuneaprigliano.it
0%;	 2;	 0.00;	 www.comune.anzoladellemilia.bo.it
0%;	 2;	 0.00;	 www.comune.annicco.cr.it
0%;	 2;	 0.00;	 www.comune.andria.bt.it
0%;	 2;	 0.00;	 www.comune.villadalme.bg.it
0%;	 2;	 0.00;	 www.aquilacomune.it
0%;	 2;	 0.00;	 www.comune.algua.bg.it
0%;	 2;	 0.00;	 www.comune.allein.ao.it
0%;	 2;	 0.00;	 www.comune.accumoli.ri.it
0%;	 2;	 0.00;	 www.comune.aidone.en.it
0%;	 3;	 0.01;	 www.comune.colliverdi.pv.it
0%;	 3;	 0.01;	 www.comune.barbaranomossano.vi.it
0%;	 3;	 0.01;	 www.comune.madruzzo.tn.it
0%;	 3;	 0.01;	 www.comune.ventasso.re.it
0%;	 3;	 0.01;	 www.comune.zone.bs.it
0%;	 3;	 0.01;	 www.comune.bellizzi.sa.it
0%;	 3;	 0.01;	 www.comune.zensondipiave.tv.it
0%;	 3;	 0.01;	 www.comune.villa-minozzo.re.it
0%;	 3;	 0.01;	 www.comune.spilamberto.mo.it/
0%;	 3;	 0.01;	 www.comune.vigolo.bg.it
0%;	 3;	 0.01;	 www.comune.vignola.mo.it/
0%;	 3;	 0.01;	 www.comune.turanolodigiano.lo.it
0%;	 3;	 0.01;	 www.comune.treiso.cn.it
0%;	 3;	 0.01;	 www.comune.trecate.no.it
0%;	 3;	 0.01;	 www.comune.travagliato.bs.it
0%;	 3;	 0.01;	 www.comune.torpe.nu.it
0%;	 3;	 0.01;	 www.comune.tiglieto.ge.it
0%;	 3;	 0.01;	 www.comune.taurano.av.it
0%;	 3;	 0.01;	 www.comune.terranovadeipasserini.lo.it
0%;	 3;	 0.01;	 www.comunedistrangolagalli.it
0%;	 3;	 0.01;	 www.comunedisinagra.it
0%;	 3;	 0.01;	 www.comune.sorrento.na.it
0%;	 3;	 0.01;	 www.comune.sondalo.so.it
0%;	 3;	 0.01;	 www.comune.serrenti.ca.it
0%;	 3;	 0.01;	 www.comune.scalea.cs.it
0%;	 3;	 0.01;	 www.comune.sassodicastalda.pz.it
0%;	 3;	 0.01;	 www.comune.scanzorosciate.bg.it
0%;	 3;	 0.01;	 www.comune.sarnico.bg.it
0%;	 3;	 0.01;	 www.comune.santegidiodelmontealbino.sa.it
0%;	 3;	 0.01;	 www.comune.sannicolalastrada.ce.it
0%;	 3;	 0.01;	 www.comune.sanlorenzoincampo.pu.it
0%;	 3;	 0.01;	 www.comune.sanmartinodellago.cr.it
0%;	 3;	 0.01;	 www.comune.sandidero.to.it
0%;	 3;	 0.01;	 www.comune.sancolombanoallambro.mi.it
0%;	 3;	 0.01;	 www.comune.sancipirello.pa.it
0%;	 3;	 0.01;	 www.comune.sanbasilio.ca.it
0%;	 3;	 0.01;	 www.comune.saintmarcel.ao.it
0%;	 3;	 0.01;	 www.comune.rovato.bs.it
0%;	 3;	 0.01;	 www.comune.roccasinibalda.ri.it
0%;	 3;	 0.01;	 www.comune.rimini.it
0%;	 3;	 0.01;	 www.comune.roccapiemonte.sa.it
0%;	 3;	 0.01;	 www.comune.reggiolo.re.it
0%;	 3;	 0.01;	 www.comune.recco.ge.it
0%;	 3;	 0.01;	 www.comune.randazzo.ct.it
0%;	 3;	 0.01;	 www.comune.ravanusa.ag.it
0%;	 3;	 0.01;	 www.comune.quadrelle.av.it
0%;	 3;	 0.01;	 www.comune.pontoglio.bs.it
0%;	 3;	 0.01;	 www.comune.ploaghe.ss.it
0%;	 3;	 0.01;	 www.comune.sanbenedettovaldisambro.bo.it
0%;	 3;	 0.01;	 www.pietralunga.it
0%;	 3;	 0.01;	 www.comune.pigna.im.it
0%;	 3;	 0.01;	 www.comune.pietrapertosa.pz.it
0%;	 3;	 0.01;	 www.comune.pelugo.tn.it
0%;	 3;	 0.01;	 www.comune.palagano.mo.it
0%;	 3;	 0.01;	 www.comune.pagliara.me.it
0%;	 3;	 0.01;	 www.comune.ospedalettolodigiano.lo.it
0%;	 3;	 0.01;	 www.comune.orioalserio.bg.it
0%;	 3;	 0.01;	 www.comune.oggebbio.vb.it
0%;	 3;	 0.01;	 www.comune.olevanoromano.rm.it
0%;	 3;	 0.01;	 www.comune.nicolosi.ct.it
0%;	 3;	 0.01;	 www.comune.nanto.vi.it
0%;	 3;	 0.01;	 https://www.comune.morcianodiromagna.rn.it
0%;	 3;	 0.01;	 www.comune.moresco.fm.it
0%;	 3;	 0.01;	 www.comune.montello.bg.it
0%;	 3;	 0.01;	 www.comune.montefano.mc.it
0%;	 3;	 0.01;	 www.comune.massimeno.tn.it/
0%;	 3;	 0.01;	 www.marcallo.it
0%;	 3;	 0.01;	 www.comune.marliana.pt.it
0%;	 3;	 0.01;	 www.comuneloceri.it
0%;	 3;	 0.01;	 www.comuneisolasantantonio.al.it
0%;	 3;	 0.01;	 www.comune.isoladellefemmine.pa.it
0%;	 3;	 0.01;	 www.comune.moiola.cn.it
0%;	 3;	 0.01;	 www.comune.gressan.ao.it
0%;	 3;	 0.01;	 www.comunegrigno.it
0%;	 3;	 0.01;	 www.comune.guazzora.al.it
0%;	 3;	 0.01;	 www.comune.gaiarine.tv.it
0%;	 3;	 0.01;	 www.comune.fuipianovalleimagna.bg.it
0%;	 3;	 0.01;	 www.comune.frabosasoprana.cn.it
0%;	 3;	 0.01;	 www.comune.fortunago.pv.it
0%;	 3;	 0.01;	 www.comune.formia.lt.it
0%;	 3;	 0.01;	 www.comune.escolca.ca.it
0%;	 3;	 0.01;	 www.comune.falconara-marittima.an.it
0%;	 3;	 0.01;	 www.comune.foglizzo.to.it
0%;	 3;	 0.01;	 www.comune.erbe.vr.it
0%;	 3;	 0.01;	 www.comune.deivamarina.sp.it
0%;	 3;	 0.01;	 www.comune.doues.ao.it
0%;	 3;	 0.01;	 www.comune.crognaleto.te.it
0%;	 3;	 0.01;	 www.comunecornelianodalba.it
0%;	 3;	 0.01;	 www.comune.corchiano.vt.it
0%;	 3;	 0.01;	 http://www.comune.chiusadipesio.cn.it/
0%;	 3;	 0.01;	 www.comune.cisterna.at.it
0%;	 3;	 0.01;	 www.ceriano-laghetto.org
0%;	 3;	 0.01;	 www.comune.ceraso.sa.it
0%;	 3;	 0.01;	 www.comune.castroreale.me.it
0%;	 3;	 0.01;	 www.comune.castelli.te.it
0%;	 3;	 0.01;	 www.comune.castelguelfo.bo.it
0%;	 3;	 0.01;	 www.comune.casalzuigno.va.it
0%;	 3;	 0.01;	 www.comune.carpi.mo.it
0%;	 3;	 0.01;	 www.comune.carpaneto.pc.it
0%;	 3;	 0.01;	 www.municipiodicarinola.it
0%;	 3;	 0.01;	 www.comune.carapellecalvisio.aq.it
0%;	 3;	 0.01;	 www.comune.caprezzo.vb.it
0%;	 3;	 0.01;	 www.comune.capergnanica.cr.it
0%;	 3;	 0.01;	 WWW.COMUNE.CANNETOPAVESE.PV.IT
0%;	 3;	 0.01;	 www.comune.campitellodifassa.tn.it
0%;	 3;	 0.01;	 www.comunecanistro.it
0%;	 3;	 0.01;	 www.comune.camogli.ge.it
0%;	 3;	 0.01;	 www.comune.calenzano.fi.it
0%;	 3;	 0.01;	 www.comune.camerana.cn.it
0%;	 3;	 0.01;	 www.comune.brebbia.va.it
0%;	 3;	 0.01;	 www.comune.botticino.bs.it
0%;	 3;	 0.01;	 www.comune.borgosangiacomo.bs.it
0%;	 3;	 0.01;	 www.comune.bivona.ag.it
0%;	 3;	 0.01;	 www.comune.bisacquino.pa.it
0%;	 3;	 0.01;	 www.comune.benevello.cn.it
0%;	 3;	 0.01;	 www.comune.belvederelanghe.cn.it
0%;	 3;	 0.01;	 www.comune.barolo.cn.it
0%;	 3;	 0.01;	 www.comune.arosio.co.it
0%;	 3;	 0.01;	 www.comune.anguillaraveneta.pd.it
0%;	 3;	 0.01;	 www.comune.annone-di-brianza.lc.it
0%;	 3;	 0.01;	 www.comune.alfianello.bs.it
0%;	 3;	 0.01;	 www.comune.albenga.sv.it
0%;	 4;	 0.01;	 www.comune.villalagarina.tn.it
0%;	 4;	 0.01;	 www.comune.vermezzoconzelo.mi.it
0%;	 4;	 0.01;	 www.comune.volpago-del-montello.tv.it
0%;	 4;	 0.01;	 www.comune.santamarialacarita.na.it/
0%;	 4;	 0.01;	 www.comune.villadiserio.bg.it
0%;	 4;	 0.01;	 www.comune.viguzzolo.al.it
0%;	 4;	 0.01;	 www.comune.villareggia.to.it
0%;	 4;	 0.01;	 www.comune.vezza-d-oglio.bs.it
0%;	 4;	 0.01;	 www.comune.vedanoallambro.mb.it
0%;	 4;	 0.01;	 www.comune.valguarnera.en.it
0%;	 4;	 0.01;	 www.comune.vaianocremasco.cr.it
0%;	 4;	 0.01;	 www.comune.triuggio.mb.it
0%;	 4;	 0.01;	 www.comunetrivigno.gov.it
0%;	 4;	 0.01;	 www.comune.trepuzzi.le.it
0%;	 4;	 0.01;	 www.comune.tronzanovercellese.vc.it
0%;	 4;	 0.01;	 www.comune.toscolanomaderno.bs.it
0%;	 4;	 0.01;	 www.comune.tesero.tn.it
0%;	 4;	 0.01;	 www.comune.tavernola-bergamasca.bg.it
0%;	 4;	 0.01;	 www.comune.siracusa.it
0%;	 4;	 0.01;	 www.comuneserri.it
0%;	 4;	 0.01;	 www.comuneseborga.it
0%;	 4;	 0.01;	 https://www.comune.santa-maria-a-vico.ce.it
0%;	 4;	 0.01;	 www.sanstino.it
0%;	 4;	 0.01;	 comune.sansalvatoredifitalia.me.it
0%;	 4;	 0.01;	 www.comune.santacaterinavillarmosa.cl.it
0%;	 4;	 0.01;	 www.sanpietrodicadore.info
0%;	 4;	 0.01;	 www.comune.sanmichelealladige.tn.it
0%;	 4;	 0.01;	 www.sanpancraziosalentino.gov.it
0%;	 4;	 0.01;	 www.comune.sangiorgioscarampi.at.it
0%;	 4;	 0.01;	 www.comune.sanfront.cn.it
0%;	 4;	 0.01;	 www.comune.sangermanovercellese.vc.it
0%;	 4;	 0.01;	 www.comune.sabbio.bs.it
0%;	 4;	 0.01;	 www.comune.rombiolo.vv.it
0%;	 4;	 0.01;	 www.comune.ripaltaarpina.cr.it
0%;	 4;	 0.01;	 www.comune.rieti.it
0%;	 4;	 0.01;	 www.comune.ramacca.ct.it
0%;	 4;	 0.01;	 www.comune.pontesannicolo.pd.it
0%;	 4;	 0.01;	 www.comune.pistoia.it
0%;	 4;	 0.01;	 www.comune.peio.tn.it
0%;	 4;	 0.01;	 www.comunepantelleria.it
0%;	 4;	 0.01;	 www.comune.orria.sa.it
0%;	 4;	 0.01;	 www.comune.ollolai.nu.it
0%;	 4;	 0.01;	 www.comune.oyace.ao.it
0%;	 4;	 0.01;	 www.comunenughedusv.it
0%;	 4;	 0.01;	 www.comune.morrovalle.mc.it
0%;	 4;	 0.01;	 www.comune.montecarlo.lu.it
0%;	 4;	 0.01;	 www.comune.monteleoneroccadoria.ss.it
0%;	 4;	 0.01;	 www.comune.mombelloditorino.to.it
0%;	 4;	 0.01;	 www.comune.monforte.cn.it
0%;	 4;	 0.01;	 www.comune.mestrino.pd.it
0%;	 4;	 0.01;	 www.comune.miagliano.bi.it
0%;	 4;	 0.01;	 www.comune.mariglianella.na.it
0%;	 4;	 0.01;	 www.comune.marcheno.bs.it
0%;	 4;	 0.01;	 www.comune.maletto.ct-egov.it
0%;	 4;	 0.01;	 www.comune.lucignano.ar.it
0%;	 4;	 0.01;	 www.comune.loreglia.vb.it/
0%;	 4;	 0.01;	 www.comune.limonesulgarda.bs.it
0%;	 4;	 0.01;	 www.comune.jeragoconorago.va.it
0%;	 4;	 0.01;	 www.comune.lamorra.cn.it
0%;	 4;	 0.01;	 www.comune.lajatico.pi.it
0%;	 4;	 0.01;	 www.comune.gualtieri.re.it
0%;	 4;	 0.01;	 www.comune.gaiba.ro.it
0%;	 4;	 0.01;	 www.comune.gallomatese.ce.it
0%;	 4;	 0.01;	 www.comune.frassinoro.mo.it
0%;	 4;	 0.01;	 http://www.comune.frascati.rm.it/
0%;	 4;	 0.01;	 www.comune.valsinni.mt.it
0%;	 4;	 0.01;	 www.comune.falconaraalbanese.cs.it
0%;	 4;	 0.01;	 www.comune.costaserina.bg.it
0%;	 4;	 0.01;	 http://www.comune.cortemilia.cn.it/Home/tabid/23611/Default.aspx
0%;	 4;	 0.01;	 www.comune.copertino.le.it
0%;	 4;	 0.01;	 www.comune.collesano.pa.it
0%;	 4;	 0.01;	 www.comune.concamarise.vr.it/
0%;	 4;	 0.01;	 www.comune.civitavecchia.rm.it
0%;	 4;	 0.01;	 www.comune.collisulvelino.ri.it/
0%;	 4;	 0.01;	 www.comune.cisondivalmarino.tv.it
0%;	 4;	 0.01;	 www.comune.cittasantangelo.pe.it
0%;	 4;	 0.01;	 www.comune.cerignale.pc.it
0%;	 4;	 0.01;	 www.comune.castiglionedisicilia.gov.it
0%;	 4;	 0.01;	 www.comune.verres.ao.it
0%;	 4;	 0.01;	 www.comune.castagnolepiemonte.to.it
0%;	 4;	 0.01;	 www.comune.casalciprano.cb.it
0%;	 4;	 0.01;	 www.comune.castana.pv.it
0%;	 4;	 0.01;	 www.comune.capurso.bari.it
0%;	 4;	 0.01;	 www.capracotta.com
0%;	 4;	 0.01;	 www.comune.carosino.ta.it
0%;	 4;	 0.01;	 www.comune.capistrello.aq.it
0%;	 4;	 0.01;	 www.comune.cancelloedarnone.ce.it/
0%;	 4;	 0.01;	 www.comune.canosio.cn.it
0%;	 4;	 0.01;	 www.comune.caltagirone.gov.it
0%;	 4;	 0.01;	 www.comune.calci.pi.it
0%;	 4;	 0.01;	 www.comune.bussero.mi.it
0%;	 4;	 0.01;	 www.comune.brusciano.na.it
0%;	 4;	 0.01;	 www.comune.brossasco.cn.it
0%;	 4;	 0.01;	 www.comune.brusnengo.bi.it
0%;	 4;	 0.01;	 www.comuneborgodale.info
0%;	 4;	 0.01;	 www.comune.bonarcado.or.it
0%;	 4;	 0.01;	 www.comune.bertinoro.fc.it
0%;	 4;	 0.01;	 www.comune.bergeggi.gov.it
0%;	 4;	 0.01;	 www.comune.bella.pz.it
0%;	 4;	 0.01;	 www.comune.bergantino.ro.it
0%;	 4;	 0.01;	 www.comune.bagnodiromagna.fc.it
0%;	 4;	 0.01;	 www.comune.ala.tn.it
0%;	 4;	 0.01;	 www.comune.agugliano.an.it
0%;	 5;	 0.01;	 www.comune.dimarofolgarida.tn.it
0%;	 5;	 0.01;	 www.comune.villaspeciosa.ca.it
0%;	 5;	 0.01;	 www.comune.vinadio.cn.it
0%;	 5;	 0.01;	 www.comunedivernole.it
0%;	 5;	 0.01;	 www.comune.tremestieri.ct.it
0%;	 5;	 0.01;	 www.comunetrabia.it
0%;	 5;	 0.01;	 www.comune.treville.al.it
0%;	 5;	 0.01;	 www.comunediterzigno.gov.it
0%;	 5;	 0.01;	 comune.soraga.tn.it
0%;	 5;	 0.01;	 www.comune-solarino.gov.it
0%;	 5;	 0.01;	 comune.serdiana.ca.it
0%;	 5;	 0.01;	 www.comunesanvitochietino.gov.it
0%;	 5;	 0.01;	 www.comune.santantimo.na.it
0%;	 5;	 0.01;	 www.comune.sansebastianodapo.to.it
0%;	 5;	 0.01;	 www.comune.sanbiagiosaracinisco.fr.it
0%;	 5;	 0.01;	 www.comune.sanmaurodisaline.vr.it
0%;	 5;	 0.01;	 www.comune.sancascianodeibagni.si.it
0%;	 5;	 0.01;	 www.comune.roure.to.it
0%;	 5;	 0.01;	 www.comune.ranica.bg.it
0%;	 5;	 0.01;	 www.comune.radicofani.si.it
0%;	 5;	 0.01;	 www.comune.ranzo.im.it
0%;	 5;	 0.01;	 www.comune.pievedelcairo.pv.it
0%;	 5;	 0.01;	 www.comune.piovamassaia.at.it
0%;	 5;	 0.01;	 www.comune.petraliasottana.pa.it
0%;	 5;	 0.01;	 www.comune.osini.nu.it
0%;	 5;	 0.01;	 www.comune.nicosia.en.it
0%;	 5;	 0.01;	 www.comune.nebbiuno.no.it
0%;	 5;	 0.01;	 www.comunedimoscufo.it
0%;	 5;	 0.01;	 www.monrupino-repentabor.it
0%;	 5;	 0.01;	 www.comune.molveno.tn.it
0%;	 5;	 0.01;	 www.comune.martinafranca.ta.it
0%;	 5;	 0.01;	 www.comune.laveno.va.it
0%;	 5;	 0.01;	 www.comune.leini.to.it
0%;	 5;	 0.01;	 www.guarene.it
0%;	 5;	 0.01;	 www.comune.grumentonova.pz.it
0%;	 5;	 0.01;	 www.comune.gravina.ba.it
0%;	 5;	 0.01;	 www.comune.grumellodelmonte.bg.it
0%;	 5;	 0.01;	 www.comune.giano-dellumbria.pg.it
0%;	 5;	 0.01;	 www.comune.frosolone.is.it
0%;	 5;	 0.01;	 www.comune.fabriano.an.it
0%;	 5;	 0.01;	 www.comune.falcianodelmassico.ce.it
0%;	 5;	 0.01;	 www.comune.dianomarina.im.it
0%;	 5;	 0.01;	 www.comune.cumignano.cr.it
0%;	 5;	 0.01;	 www.comune.crevoladossola.vb.it
0%;	 5;	 0.01;	 www.comune.colonnella.te.it
0%;	 5;	 0.01;	 www.comune.collazzone.pg.it
0%;	 5;	 0.01;	 www.comune.conzadellacampania.av.it
0%;	 5;	 0.01;	 www.comune.cividatealpiano.bg.it
0%;	 5;	 0.01;	 www.comune.cessapalombo.mc.it
0%;	 5;	 0.01;	 www.comune.cepagatti.pe.it
0%;	 5;	 0.01;	 www.comune.cervinara.av.it
0%;	 5;	 0.01;	 www.comune.cellamonte.al.it
0%;	 5;	 0.01;	 www.comune.castroregio.cs.it
0%;	 5;	 0.01;	 www.comune.castellettomerli.al.it
0%;	 5;	 0.01;	 www.comune.casteldicasio.bo.it
0%;	 5;	 0.01;	 www.comune.carpineti.re.it
0%;	 5;	 0.01;	 www.comune.camposano.na.it
0%;	 5;	 0.01;	 www.comune.campegine.re.it
0%;	 5;	 0.01;	 www.comune.cambiago.mi.it
0%;	 5;	 0.01;	 www.comune.caerano-di-san-marco.tv.it
0%;	 5;	 0.01;	 www.comune.brugnato.sp.it
0%;	 5;	 0.01;	 www.comune.borgosangiovanni.lo.it
0%;	 5;	 0.01;	 www.comune.bolzano.it
0%;	 5;	 0.01;	 www.comune.bitetto.ba.it
0%;	 5;	 0.01;	 www.comune.basiglio.mi.it
0%;	 5;	 0.01;	 www.baldisserodalba.org
0%;	 5;	 0.01;	 www.comune.aosta.it
0%;	 5;	 0.01;	 https://www.comune.arienzo.ce.it/
0%;	 5;	 0.01;	 www.comune.angera.va.it
0%;	 5;	 0.01;	 www.comune.alzanoscrivia.al.it
0%;	 5;	 0.01;	 www.comune.arborio.vc.it
0%;	 5;	 0.01;	 www.comune-alicecastello-vercelli.it
0%;	 5;	 0.01;	 www.comune.albisola-superiore.sv.it
0%;	 6;	 0.01;	 www.comune.novella.tn.it
0%;	 6;	 0.01;	 www.comune.valbrembilla.bg.it
0%;	 6;	 0.01;	 www.comune.vo.pd.it
0%;	 6;	 0.01;	 www.villanovadalbenga.com
0%;	 6;	 0.01;	 www.comune.vedeseta.bg.it
0%;	 6;	 0.01;	 http://www.comune.ussaramanna.vs.it/
0%;	 6;	 0.01;	 www.comune.trezzano-sul-naviglio.mi.it
0%;	 6;	 0.01;	 www.comune.trambileno.tn.it
0%;	 6;	 0.01;	 https://trecchina.gov.it/
0%;	 6;	 0.01;	 www.comune.torraca.sa.it
0%;	 6;	 0.01;	 www.comune.ternengo.bi.it
0%;	 6;	 0.01;	 www.comune.tadasuni.or.it
0%;	 6;	 0.01;	 www.comunesoldano.it
0%;	 6;	 0.01;	 www.comune.sordevolo.bi.it
0%;	 6;	 0.01;	 www.comune.sedrina.bg.it
0%;	 6;	 0.01;	 www.comune.serrapetrona.mc.it
0%;	 6;	 0.01;	 www.comune.san-secondo-parmense.pr.it
0%;	 6;	 0.01;	 www.comune.sanpietromussolino.vi.it
0%;	 6;	 0.01;	 www.comune.sanmaurolabruca.sa.it
0%;	 6;	 0.01;	 www.comune.sanfeliceacancello.ce.it
0%;	 6;	 0.01;	 www.comune.sanarica.le.it
0%;	 6;	 0.01;	 www.comune.salerno.it
0%;	 6;	 0.01;	 www.comune.saleranocanavese.to.it
0%;	 6;	 0.01;	 www.comune.rolo.re.it
0%;	 6;	 0.01;	 www.comune.rodello.cn.it
0%;	 6;	 0.01;	 www.comune.rende.cs.it
0%;	 6;	 0.01;	 www.comune.quarto.na.it
0%;	 6;	 0.01;	 www.comune.quintovercellese.vc.it/
0%;	 6;	 0.01;	 www.comune.quadri.ch.it
0%;	 6;	 0.01;	 www.comune.pontecagnanofaiano.sa.it
0%;	 6;	 0.01;	 www.comune.pitigliano.gr.it
0%;	 6;	 0.01;	 www.comunepietrabruna.it
0%;	 6;	 0.01;	 www.comune.pergine.tn.it
0%;	 6;	 0.01;	 www.comune.pennasantandrea.te.it
0%;	 6;	 0.01;	 www.comune.paulilatino.or.it
0%;	 6;	 0.01;	 www.comune.partinico.pa.it
0%;	 6;	 0.01;	 www.paesana.it
0%;	 6;	 0.01;	 www.comune.pachino.sr.it
0%;	 6;	 0.01;	 www.comune.osidda.nu.it
0%;	 6;	 0.01;	 www.comune.orune.nu.it
0%;	 6;	 0.01;	 www.comune.norbello.or.it
0%;	 6;	 0.01;	 www.comune.nurri.ca.it
0%;	 6;	 0.01;	 www.montefalcone.it
0%;	 6;	 0.01;	 www.comune.montazzoli.ch.it
0%;	 6;	 0.01;	 www.comune.mombasiglio.cn.it/
0%;	 6;	 0.01;	 www.comunemissanello.it
0%;	 6;	 0.01;	 www.comune.manta.cn.it
0%;	 6;	 0.01;	 www.comune.marcianamarina.li.it
0%;	 6;	 0.01;	 www.comune.leverano.le.it
0%;	 6;	 0.01;	 www.comune.giffonivallepiana.sa.it
0%;	 6;	 0.01;	 comune.giusvalla.sv.it/home/
0%;	 6;	 0.01;	 www.comune.ghislarengo.vc.it/
0%;	 6;	 0.01;	 www.comune.gavoi.nu.it
0%;	 6;	 0.01;	 www.comune.fianoromano.rm.it
0%;	 6;	 0.01;	 www.comune.poggiosanvicino.mc.it
0%;	 6;	 0.01;	 www.comune.envie.cn.it
0%;	 6;	 0.01;	 www.comunedianocastello.it
0%;	 6;	 0.01;	 www.comune.cusanomutri.bn.it
0%;	 6;	 0.01;	 www.comune.comezzanocizzago.bs.it
0%;	 6;	 0.01;	 www.comune.cerrina.al.it
0%;	 6;	 0.01;	 www.comune.cavagnolo.to.it
0%;	 6;	 0.01;	 www.comune.castelpizzuto.is.it
0%;	 6;	 0.01;	 www.comune.castelcondino.tn.it
0%;	 6;	 0.01;	 www.comune.castellinodelbiferno.cb.it
0%;	 6;	 0.01;	 https://www.comune.castelcastagna.te.it
0%;	 6;	 0.01;	 www.comune.casalmaiocco.lo.it
0%;	 6;	 0.01;	 https://www.comune.casalvelino.sa.it
0%;	 6;	 0.01;	 www.comune.carrodano.sp.it
0%;	 6;	 0.01;	 www.comune.casalgrasso.cn.it
0%;	 6;	 0.01;	 www.comune.caraglio.cn.it
0%;	 6;	 0.01;	 www.comune.caorso.pc.it
0%;	 6;	 0.01;	 http://egov.hseweb.it/candela/hh/index.php
0%;	 6;	 0.01;	 https://www.comune.calitri.av.it/
0%;	 6;	 0.01;	 www.comune.buscate.mi.it
0%;	 6;	 0.01;	 www.comune.cameratacornello.bg.it
0%;	 6;	 0.01;	 www.comune.brusasco.to.gov.it
0%;	 6;	 0.01;	 www.comune.brindisi.it
0%;	 6;	 0.01;	 www.comune.borgosesia.vc.it
0%;	 6;	 0.01;	 www.comune.bondone.tn.it
0%;	 6;	 0.01;	 www.comune.bobbio.pc.it
0%;	 6;	 0.01;	 www.comune.vasanello.vt.it
0%;	 6;	 0.01;	 www.comune.atripalda.av.it
0%;	 6;	 0.01;	 www.comune.andalo.tn.it
0%;	 6;	 0.01;	 www.comune.anela.ss.it
0%;	 7;	 0.01;	 www.comune.pievedibono-prezzo.tn.it
0%;	 7;	 0.01;	 www.comune.ronzo-chienis.tn.it
0%;	 7;	 0.01;	 www.comune.vallecannobina.vb.it
0%;	 7;	 0.01;	 www.comune.loiriportosanpaolo.ot.it
0%;	 7;	 0.01;	 http://www.comune.vignola-falesina.tn.it/
0%;	 7;	 0.01;	 www.comune.vicoforte.cn.it
0%;	 7;	 0.01;	 www.comune.villafranca.vr.it
0%;	 7;	 0.01;	 www.comune.serrasanbruno.vv.it
0%;	 7;	 0.01;	 www.comune.ugento.le.it
0%;	 7;	 0.01;	 www.comune.valvestino.bs.it
0%;	 7;	 0.01;	 www.comune.telvedisopra.tn.it
0%;	 7;	 0.01;	 www.comune.stornara.fg.it
0%;	 7;	 0.01;	 www.comune.stenico.tn.it
0%;	 7;	 0.01;	 www.comune.sestri-levante.ge.it
0%;	 7;	 0.01;	 www.comune.santambrogio.vr.it
0%;	 7;	 0.01;	 www.comune.sanbonifacio.vr.it
0%;	 7;	 0.01;	 www.comunesaludecio.it
0%;	 7;	 0.01;	 www.comune.rumo.tn.it
0%;	 7;	 0.01;	 www.comune.roncoalladige.vr.it
0%;	 7;	 0.01;	 www.comune.rodigo.mn.it
0%;	 7;	 0.01;	 www.comune.castelvittorio.im.it
0%;	 7;	 0.01;	 www.comune.putignano.ba.it
0%;	 7;	 0.01;	 www.comune.proceno.vt.it
0%;	 7;	 0.01;	 www.comune.pre-saint-didier.ao.it
0%;	 7;	 0.01;	 www.comune.premeno.vb.it
0%;	 7;	 0.01;	 www.comune.pozzallo.rg.it
0%;	 7;	 0.01;	 www.comune.pozzilli.is.it
0%;	 7;	 0.01;	 www.comune.pontsaintmartin.ao.it
0%;	 7;	 0.01;	 www.comune.positano.sa.it
0%;	 7;	 0.01;	 www.comune.piazzola.pd.it
0%;	 7;	 0.01;	 www.comune.piozzo.cn.it
0%;	 7;	 0.01;	 www.comune.pianengo.cr.it
0%;	 7;	 0.01;	 www.comune.patti.me.it
0%;	 7;	 0.01;	 www.comune.perletto.cn.it/
0%;	 7;	 0.01;	 www.comune.villaricca.na.it
0%;	 7;	 0.01;	 www.comune.onani.nu.it/
0%;	 7;	 0.01;	 www.comune.novoli.le.it
0%;	 7;	 0.01;	 www.comune.nociglia.le.it
0%;	 7;	 0.01;	 www.comune.montebellodibertona.pe.it
0%;	 7;	 0.01;	 www.comune.mt.it
0%;	 7;	 0.01;	 www.comune.lodrino.bs.it
0%;	 7;	 0.01;	 www.comune.lauria.pz.it
0%;	 7;	 0.01;	 www.comune.sp.it
0%;	 7;	 0.01;	 www.comune.frossasco.to.it
0%;	 7;	 0.01;	 www.comune.gabbionetabinanuova.cr.it
0%;	 7;	 0.01;	 www.comune.fiamignano.ri.it
0%;	 7;	 0.01;	 www.comune.empoli.fi.it
0%;	 7;	 0.01;	 www.comune.emarese.ao.it
0%;	 7;	 0.01;	 www.comune.diso.le.it
0%;	 7;	 0.01;	 www.comune.delianuova.rc.it
0%;	 7;	 0.01;	 www.comelicosuperiore.info
0%;	 7;	 0.01;	 www.comune.cisterna.latina.it
0%;	 7;	 0.01;	 www.comune.duronia.cb.it
0%;	 7;	 0.01;	 www.comune.cinisi.pa.it
0%;	 7;	 0.01;	 www.comune.cefalu.pa.it/
0%;	 7;	 0.01;	 www.comune.castiglionfibocchi.ar.it
0%;	 7;	 0.01;	 www.comunecastelmola.it
0%;	 7;	 0.01;	 www.comune.casteldelci.rn.it
0%;	 7;	 0.01;	 www.comune.castelbottaccio.cb.it
0%;	 7;	 0.01;	 www.comune.castellanagrotte.ba.it/
0%;	 7;	 0.01;	 www.comune.casalettovaprio.cr.it/
0%;	 7;	 0.01;	 www.casalbuttano.it
0%;	 7;	 0.01;	 www.comune.caramagnapiemonte.cn.it
0%;	 7;	 0.01;	 www.comune.brittoli.pe.it
0%;	 7;	 0.01;	 www.comune.bellante.te.it/
0%;	 7;	 0.01;	 www.comune.altopascio.lu.it
0%;	 7;	 0.01;	 www.comune.altavillavicentina.vi.it
0%;	 7;	 0.01;	 www.comune.abbiategrasso.mi.it
0%;	 8;	 0.02;	 www.comune.borgolares.tn.it
0%;	 8;	 0.02;	 www.comune.zeddiani.or.it
0%;	 8;	 0.02;	 www.comune.torrederoveri.bg.it
0%;	 8;	 0.02;	 www.comune.tarantasca.cn.it
0%;	 8;	 0.02;	 www.comune.terranovadipollino.pz.it
0%;	 8;	 0.02;	 www.comune.strona.bi.it
0%;	 8;	 0.02;	 www.comune.sottoilmontegiovannixxiii.bg.it/
0%;	 8;	 0.02;	 www.comune.settala.mi.it
0%;	 8;	 0.02;	 www.comune.sassofeltrio.pu.it
0%;	 8;	 0.02;	 www.comune.sardara.vs.it
0%;	 8;	 0.02;	 www.comune.sant-agapito.is.it
0%;	 8;	 0.02;	 www.comune.sala-baganza.pr.it
0%;	 8;	 0.02;	 www.comune.rotondella.mt.it
0%;	 8;	 0.02;	 www.comune.ronsecco.vc.it
0%;	 8;	 0.02;	 www.comune.roccasancasciano.fc.it
0%;	 8;	 0.02;	 www.comune.rovasenda.vc.it
0%;	 8;	 0.02;	 www.comune.pomarolo.tn.it/
0%;	 8;	 0.02;	 www.comune.piubega.mn.it
0%;	 8;	 0.02;	 www.comune.paruzzaro.no.it
0%;	 8;	 0.02;	 www.comune.palena.ch.it
0%;	 8;	 0.02;	 www.comune.osiosopra.bg.it
0%;	 8;	 0.02;	 www.comune.orsago.tv.it
0%;	 8;	 0.02;	 www.comune.orero.ge.it
0%;	 8;	 0.02;	 www.comune.noventa.pd.it
0%;	 8;	 0.02;	 www.comune.nemoli.pz.it
0%;	 8;	 0.02;	 www.narzole.net
0%;	 8;	 0.02;	 www.comune.netro.bi.it
0%;	 8;	 0.02;	 www.comune.monticellodalba.cn.it
0%;	 8;	 0.02;	 www.comune.monterotondo.rm.it
0%;	 8;	 0.02;	 www.comune.montereale.it
0%;	 8;	 0.02;	 www.comune.monteforteirpino.av.it
0%;	 8;	 0.02;	 www.comune.montecorvinopugliano.sa.it
0%;	 8;	 0.02;	 www.comune.montecalvo.pu.it
0%;	 8;	 0.02;	 www.montegiberto.net
0%;	 8;	 0.02;	 www.comune.monsummano-terme.pt.it
0%;	 8;	 0.02;	 www.comune.maschito.pz.it
0%;	 8;	 0.02;	 www.comune.mattinata.fg.it
0%;	 8;	 0.02;	 www.comune.madone.bg.it
0%;	 8;	 0.02;	 https://www.comune.loculi.nu.it/index.php
0%;	 8;	 0.02;	 www.comune.leonforte.en.it
0%;	 8;	 0.02;	 www.comune.liscate.mi.it
0%;	 8;	 0.02;	 www.comune.griante.co.it
0%;	 8;	 0.02;	 www.comune.giardinello.pa.it
0%;	 8;	 0.02;	 www.comune.germignaga.va.it
0%;	 8;	 0.02;	 www.comune.fontanellato.pr.it
0%;	 8;	 0.02;	 www.comune.domodossola.vb.it
0%;	 8;	 0.02;	 www.comune.cuglieri.or.it
0%;	 8;	 0.02;	 www.comune.cortedefrati.cr.it
0%;	 8;	 0.02;	 www.comune.cossogno.vb.it
0%;	 8;	 0.02;	 www.comune.collobiano.vc.it
0%;	 8;	 0.02;	 www.comuneconcadeimarini.it
0%;	 8;	 0.02;	 www.comune.cisanosulneva.sv.it/
0%;	 8;	 0.02;	 www.comune.castrovillari.cs.it
0%;	 8;	 0.02;	 www.comune.cergnago.pv.it
0%;	 8;	 0.02;	 www.comune.casatenovo.lc.it
0%;	 8;	 0.02;	 www.comune.casalpusterlengo.lo.it
0%;	 8;	 0.02;	 www.comune.carnago.va.it
0%;	 8;	 0.02;	 www.comune.carde.cn.it
0%;	 8;	 0.02;	 www.comune.carmiano.le.it
0%;	 8;	 0.02;	 www.comune.canosa.bt.it/
0%;	 8;	 0.02;	 www.comunecampiglia.vi.it
0%;	 8;	 0.02;	 www.comune.brusimpiano.va.it/
0%;	 8;	 0.02;	 www.comune.bruino.to.it
0%;	 8;	 0.02;	 www.comune.borgonovo.pc.it
0%;	 8;	 0.02;	 www.comune.alife.ce.it/
0%;	 8;	 0.02;	 www.comune.alghero.ss.it
0%;	 8;	 0.02;	 www.comune.airasca.to.it
0%;	 9;	 0.02;	 http://www.comune.borgoveneto.pd.it/
0%;	 9;	 0.02;	 www.comunedistatte.gov.it
0%;	 9;	 0.02;	 www.comune.specchia.le.it
0%;	 9;	 0.02;	 www.comune.vertova.bg.it
0%;	 9;	 0.02;	 www.comune.valdisotto.so.it
0%;	 9;	 0.02;	 www.comune.sommacampagna.vr.it/
0%;	 9;	 0.02;	 www.comune.siamanna.or.it
0%;	 9;	 0.02;	 www.comune.sepino.cb.it
0%;	 9;	 0.02;	 www.comune.savigliano.cn.it/servizi/notizie/notizie_homepage.aspx
0%;	 9;	 0.02;	 www.comune.santeusanio.aq.it
0%;	 9;	 0.02;	 www.comune.roddino.cn.it
0%;	 9;	 0.02;	 www.comune.recale.ce.it
0%;	 9;	 0.02;	 www.comune.pumenengo.bg.it
0%;	 9;	 0.02;	 www.comune.potenza.it
0%;	 9;	 0.02;	 www.comune.portomaggiore.fe.it
0%;	 9;	 0.02;	 www.comune.pontedassio.im.it
0%;	 9;	 0.02;	 www.comune.poggiobustone.ri.it
0%;	 9;	 0.02;	 www.comune.petrellasalto.ri.it
0%;	 9;	 0.02;	 www.comune.pandino.cr.it
0%;	 9;	 0.02;	 www.comune.pagazzano.bg.it
0%;	 9;	 0.02;	 www.comune.osiosotto.bg.it
0%;	 9;	 0.02;	 www.comune.noventa-vicentina.vi.it
0%;	 9;	 0.02;	 http://www.comune.montegrossodasti.at.it/servizi/notizie/notizie_homepage.aspx
0%;	 9;	 0.02;	 www.comune.massadalbe.aq.it
0%;	 9;	 0.02;	 www.comune.magherno.pv.it
0%;	 9;	 0.02;	 www.comune.lugo.ra.it
0%;	 9;	 0.02;	 www.comune.lesmo.mb.it
0%;	 9;	 0.02;	 www.comunelecceneimarsi.it
0%;	 9;	 0.02;	 www.comune.fregona.tv.it
0%;	 9;	 0.02;	 www.comune.florinas.ss.it
0%;	 9;	 0.02;	 www.comune.esanatoglia.mc.it
0%;	 9;	 0.02;	 www.comune.cori.lt.it
0%;	 9;	 0.02;	 www.comune.civitaquana.pe.it
0%;	 9;	 0.02;	 www.comune.cervere.cn.it
0%;	 9;	 0.02;	 www.comune.castiragavidardo.lo.it
0%;	 9;	 0.02;	 https://www.casalbordino.gov.it
0%;	 9;	 0.02;	 www.comune.carisolo.tn.it
0%;	 9;	 0.02;	 www.comune.caronia.me.it
0%;	 9;	 0.02;	 www.comune.cantalice.ri.it
0%;	 9;	 0.02;	 https://www.comune.capitignano.aq.it/
0%;	 9;	 0.02;	 www.comune.briaglia.cn.it
0%;	 9;	 0.02;	 www.comune.bareggio.mi.it
0%;	 9;	 0.02;	 www.comune.abanoterme.pd.it
0%;	 9;	 0.02;	 www.comune.accadia.fg.it
0%;	 9;	 0.02;	 www.comune.adrarasanrocco.bg.it
0%;	 10;	 0.02;	 www.comune.vilminore.bg.it
0%;	 10;	 0.02;	 www.comunevillaga.vi.it
0%;	 10;	 0.02;	 www.comune.vermiglio.tn.it
0%;	 10;	 0.02;	 www.comune.vernante.cn.it
0%;	 10;	 0.02;	 www.comune.valbrevenna.ge.it
0%;	 10;	 0.02;	 www.comune.surano.le.it
0%;	 10;	 0.02;	 www.comune.montebellosulsangro.ch.it
0%;	 10;	 0.02;	 www.comune.rapallo.ge.it
0%;	 10;	 0.02;	 www.comune.polino.tr.it
0%;	 10;	 0.02;	 www.comune.piazzatorre.bg.it
0%;	 10;	 0.02;	 www.comune.pezzolovalleuzzone.cn.it
0%;	 10;	 0.02;	 www.comune.oliena.nu.it
0%;	 10;	 0.02;	 www.comune.monteparano.ta.it
0%;	 10;	 0.02;	 www.comune.montale.pt.it
0%;	 10;	 0.02;	 www.comune.moena.tn.it
0%;	 10;	 0.02;	 www.comune.mistretta.me.it
0%;	 10;	 0.02;	 www.comune.medolago.bg.it
0%;	 10;	 0.02;	 www.comune.marino.rm.gov.it
0%;	 10;	 0.02;	 www.comune.maranomarchesato.cs.it
0%;	 10;	 0.02;	 www.comune.gossolengo.pc.it/
0%;	 10;	 0.02;	 www.comune.formigliana.vc.it
0%;	 10;	 0.02;	 www.comune.entracque.cn.it
0%;	 10;	 0.02;	 www.comune.credaro.bg.it
0%;	 10;	 0.02;	 www.comune.cornogiovine.lo.it
0%;	 10;	 0.02;	 www.comune.cinzano.to.it
0%;	 10;	 0.02;	 www.comune.casalnuovo.na.it
0%;	 10;	 0.02;	 www.comune.brindisimontagna.pz.it
0%;	 10;	 0.02;	 www.comune.bovolone.vr.it
0%;	 10;	 0.02;	 www.comune.bienno.bs.it
0%;	 10;	 0.02;	 www.comune.bibbiano.re.it
0%;	 10;	 0.02;	 www.comune.berzo-demo.bs.it
0%;	 10;	 0.02;	 www.comune.bessude.ss.it
0%;	 10;	 0.02;	 www.comune.battifollo.cn.it
0%;	 10;	 0.02;	 www.comune.arzignano.vi.it
0%;	 10;	 0.02;	 www.comune.bagnasco.cn.it
0%;	 10;	 0.02;	 www.comune.aragona.ag.it
0%;	 10;	 0.02;	 www.comune.agropoli.sa.it
0%;	 10;	 0.02;	 www.comune.acicastello.ct.it
0%;	 10;	 0.02;	 www.comune.caderzoneterme.tn.it
0%;	 11;	 0.02;	 www.comune.quaregnacerreto.bi.it
0%;	 11;	 0.02;	 www.comune.vigevano.pv.it
0%;	 11;	 0.02;	 www.comune.veniano.co.it
0%;	 11;	 0.02;	 www.comune.vaglia.fi.it
0%;	 11;	 0.02;	 www.comune.trinita.cn.it
0%;	 11;	 0.02;	 www.comune.toccodacasauria.pe.it
0%;	 11;	 0.02;	 www.comune.sternatia.le.it
0%;	 11;	 0.02;	 www.comune.scandolararipadoglio.cr.it
0%;	 11;	 0.02;	 www.santostefanobelbo.it/
0%;	 11;	 0.02;	 www.comune.sambuca.pt.it
0%;	 11;	 0.02;	 www.comune.revine-lago.tv.it
0%;	 11;	 0.02;	 www.comune.rabbi.tn.it
0%;	 11;	 0.02;	 www.comune.sassomarconi.bologna.it
0%;	 11;	 0.02;	 www.comune.portoviro.ro.it
0%;	 11;	 0.02;	 www.comunepomarance.it
0%;	 11;	 0.02;	 www.comune.poncarale.brescia.it
0%;	 11;	 0.02;	 www.comune.persicodosimo.cr.it
0%;	 11;	 0.02;	 www.comune.patu.gov.it
0%;	 11;	 0.02;	 www.comune.olmeneta.cr.it
0%;	 11;	 0.02;	 www.comunedinovaradisicilia.me.it
0%;	 11;	 0.02;	 www.comune.occhieppo-superiore.bi.it
0%;	 11;	 0.02;	 www.comune.nocera-inferiore.sa.it
0%;	 11;	 0.02;	 www.comune.nocara.cs.it
0%;	 11;	 0.02;	 www.comune.montorioneifrentani.cb.it
0%;	 11;	 0.02;	 www.comune.monteronidarbia.si.it
0%;	 11;	 0.02;	 www.comune.mercatosanseverino.sa.it
0%;	 11;	 0.02;	 www.comune.massamarittima.gr.it
0%;	 11;	 0.02;	 www.comune.mansue.tv.it
0%;	 11;	 0.02;	 www.comune.loropiceno.mc.it
0%;	 11;	 0.02;	 www.comune.longhena.bs.it
0%;	 11;	 0.02;	 www.comune.lignano-sabbiadoro.ud.it
0%;	 11;	 0.02;	 www.comune.lampedusaelinosa.ag.it
0%;	 11;	 0.02;	 www.comune.laloggia.to.it
0%;	 11;	 0.02;	 www.unionedeicomuni.cr.it
0%;	 11;	 0.02;	 www.comune.gorle.bg.it
0%;	 11;	 0.02;	 www.comune.gallese.vt.it
0%;	 11;	 0.02;	 www.comune.gallarate.va.it
0%;	 11;	 0.02;	 www.comune.ferrazzano.cb.it
0%;	 11;	 0.02;	 www.comune.cerroallambro.mi.it
0%;	 11;	 0.02;	 www.comune.cerchiara.cs.it
0%;	 11;	 0.02;	 www.comune.castelcovati.bs.it
0%;	 11;	 0.02;	 www.comune.castellafiume.aq.it
0%;	 11;	 0.02;	 www.comunecanosasannita.it
0%;	 11;	 0.02;	 www.comune.canepina.vt.it
0%;	 11;	 0.02;	 www.comune.camerota.sa.it
0%;	 11;	 0.02;	 www.comune.cambiasca.vb.it
0%;	 11;	 0.02;	 www.comune.caino.bs.it
0%;	 11;	 0.02;	 www.bordighera.it
0%;	 11;	 0.02;	 www.comune.bitritto.ba.it
0%;	 11;	 0.02;	 www.comune.balsorano.aq.it
0%;	 11;	 0.02;	 www.comune.ancona.gov.it
0%;	 11;	 0.02;	 www.comune.alme.bg.it
0%;	 12;	 0.02;	 www.comune.ussassai.og.it
0%;	 12;	 0.02;	 www.comune.amblardon.tn.it/
0%;	 12;	 0.02;	 www.comune.sanlorenzoalmare.im.it
0%;	 12;	 0.02;	 www.comune.mappano.to.it
0%;	 12;	 0.02;	 www.comune.zavattarello.pv.it
0%;	 12;	 0.02;	 www.comune.zogno.bg.it
0%;	 12;	 0.02;	 www.comuneurzulei.it
0%;	 12;	 0.02;	 www.comune.teti.nu.it
0%;	 12;	 0.02;	 www.comune.settefrati.fr.it
0%;	 12;	 0.02;	 www.comune.sinio.cn.it
0%;	 12;	 0.02;	 www.comunesanmartinobuonalbergo.it
0%;	 12;	 0.02;	 www.comune.saint-vincent.ao.it
0%;	 12;	 0.02;	 www.comune.sagama.or.it
0%;	 12;	 0.02;	 www.comune.roccabruna.cn.it
0%;	 12;	 0.02;	 https://www.comunepizzoferrato.it/
0%;	 12;	 0.02;	 www.comune.paludelfersina.tn.it
0%;	 12;	 0.02;	 www.comune.niscemi.cl.it
0%;	 12;	 0.02;	 www.comunenevianodilecce.it
0%;	 12;	 0.02;	 www.comune.muccia.mc.it
0%;	 12;	 0.02;	 www.comune.manerbio.bs.it
0%;	 12;	 0.02;	 www.comune.librizzi.me.it
0%;	 12;	 0.02;	 www.comune.iglesias.ca.it
0%;	 12;	 0.02;	 www.comunegaglianocastelferrato.gov.it
0%;	 12;	 0.02;	 www.comune.gadoni.nu.it
0%;	 12;	 0.02;	 www.comune.fontanettopo.vc.it
0%;	 12;	 0.02;	 www.comunedicortino.gov.it
0%;	 12;	 0.02;	 www.comune.chiesinauzzanese.pt.it
0%;	 12;	 0.02;	 www.comune.castagnetopo.to.it
0%;	 12;	 0.02;	 www.comunecampospinoso.it
0%;	 12;	 0.02;	 www.comune.campagnolacremasca.cr.it
0%;	 12;	 0.02;	 www.comune.calvignasco.mi.it
0%;	 12;	 0.02;	 www.comune.cairano.av.it
0%;	 12;	 0.02;	 www.comune.bellosguardo.sa.it
0%;	 12;	 0.02;	 www.comune.belvi.nu.it
0%;	 12;	 0.02;	 www.comunealbaredoarnaboldi.it
0%;	 12;	 0.02;	 www.comune.acri.cs.it
0%;	 13;	 0.03;	 www.comune-sanmarcellopiteglio.info
0%;	 13;	 0.03;	 www.comune.uragodoglio.bs.it
0%;	 13;	 0.03;	 www.comune.treviglio.bg.it
0%;	 13;	 0.03;	 www.comune.suisio.bg.it
0%;	 13;	 0.03;	 www.comune.taleggio.bg.it
0%;	 13;	 0.03;	 www.comune.spongano.le.it
0%;	 13;	 0.03;	 www.comune.santarcangelo.rn.it
0%;	 13;	 0.03;	 www.comune.sarteano.siena.it
0%;	 13;	 0.03;	 www.comune.sanfiorano.lo.it
0%;	 13;	 0.03;	 www.comune.ruffre.tn.it
0%;	 13;	 0.03;	 www.comune.rosta.to.it
0%;	 13;	 0.03;	 www.comune.regalbuto.en.it
0%;	 13;	 0.03;	 www.comune.polla.sa.it
0%;	 13;	 0.03;	 www.comune.petriano.pu.it
0%;	 13;	 0.03;	 www.comunedipagani.it
0%;	 13;	 0.03;	 www.osnago.net
0%;	 13;	 0.03;	 www.comune.montefino.te.gov.it
0%;	 13;	 0.03;	 www.comune.montecopiolo.pu.it
0%;	 13;	 0.03;	 www.comune.mombellomonferrato.al.it
0%;	 13;	 0.03;	 www.comunedimassafra.it
0%;	 13;	 0.03;	 www.comune.magnano.bi.it
0%;	 13;	 0.03;	 www.comune.lagonegro.pz.it
0%;	 13;	 0.03;	 www.comune.laconi.or.it
0%;	 13;	 0.03;	 www.comune.lastra-a-signa.fi.it
0%;	 13;	 0.03;	 www.comune.ilbono.og.it
0%;	 13;	 0.03;	 www.comune.gattatico.re.it
0%;	 13;	 0.03;	 www.comune.gambolo.pv.it
0%;	 13;	 0.03;	 www.comune.formigara.cr.it
0%;	 13;	 0.03;	 www.comune.favara.ag.it
0%;	 13;	 0.03;	 www.comune.faidellapaganella.tn.it
0%;	 13;	 0.03;	 www.comune.casamicciolaterme.na.it
0%;	 13;	 0.03;	 www.comune.bottidda.ss.it
0%;	 13;	 0.03;	 www.comune.barete.aq.it
0%;	 13;	 0.03;	 www.comune.badiapavese.pv.it
0%;	 13;	 0.03;	 www.comune.barbata.bg.it
0%;	 13;	 0.03;	 www.comune.acquavivacollecroce.cb.it
0%;	 14;	 0.03;	 www.comune.vignolo.cn.it
0%;	 14;	 0.03;	 www.comune.truccazzano.mi.it
0%;	 14;	 0.03;	 www.comune.sirignano.av.it
0%;	 14;	 0.03;	 www.comune.siniscola.nu.it
0%;	 14;	 0.03;	 www.comune.sanpietrovallemina.to.it
0%;	 14;	 0.03;	 www.comune.sanlorenzobellizzi.cs.it
0%;	 14;	 0.03;	 www.comune.salasco.vc.it
0%;	 14;	 0.03;	 www.comune.roncadelle.bs.it
0%;	 14;	 0.03;	 www.comune.portico-e-san-benedetto.fc.it
0%;	 14;	 0.03;	 www.comune.pieveemanuele.mi.it
0%;	 14;	 0.03;	 www.comune.pieranica.cr.it
0%;	 14;	 0.03;	 www.comune.palestrina.rm.it
0%;	 14;	 0.03;	 www.comune.ospedaletti.im.it
0%;	 14;	 0.03;	 www.comune.monteviale.vi.it
0%;	 14;	 0.03;	 www.comune.montesarchio.bn.it
0%;	 14;	 0.03;	 www.monteprandone.gov.it
0%;	 14;	 0.03;	 www.comune.mirandola.mo.it
0%;	 14;	 0.03;	 www.comune.mineo.ct.it
0%;	 14;	 0.03;	 www.comunedimiane.it
0%;	 14;	 0.03;	 www.comune.molare.al.it
0%;	 14;	 0.03;	 www.comune.moasca.at.it
0%;	 14;	 0.03;	 www.comune.masi.pd.it
0%;	 14;	 0.03;	 comune.mascali.ct.it
0%;	 14;	 0.03;	 www.comune.marone.bs.it
0%;	 14;	 0.03;	 www.comune.marchirolo.varese.it
0%;	 14;	 0.03;	 www.comune.mara.ss.it
0%;	 14;	 0.03;	 www.comuneguardialombardi.gov.it
0%;	 14;	 0.03;	 www.comune.gallodoro.me.gov.it
0%;	 14;	 0.03;	 www.comune.frigento.av.it
0%;	 14;	 0.03;	 www.comune.foppolo.bg.it
0%;	 14;	 0.03;	 www.comune.faraolivanaconsola.bg.it
0%;	 14;	 0.03;	 www.comune.croviana.tn.it/
0%;	 14;	 0.03;	 www.comunecavallerleone.it
0%;	 14;	 0.03;	 www.comune.bormio.so.it
0%;	 14;	 0.03;	 www.comune.bisignano.cs.it
0%;	 14;	 0.03;	 www.comune.argelato.bo.it
0%;	 14;	 0.03;	 www.comune.arona.no.it
0%;	 15;	 0.03;	 www.comune.torre-debusi.bg.it
0%;	 15;	 0.03;	 www.comune.villabiscossi.pv.it
0%;	 15;	 0.03;	 www.comune.vado-ligure.sv.it
0%;	 15;	 0.03;	 www.comune.tramatza.or.it
0%;	 15;	 0.03;	 www.comune.ternodisola.bg.it
0%;	 15;	 0.03;	 www.comune.tenno.tn.it
0%;	 15;	 0.03;	 www.comune.spezzano-albanese.cs.it/
0%;	 15;	 0.03;	 comune.seui.og.it
0%;	 15;	 0.03;	 www.comune.santorsolaterme.tn.it
0%;	 15;	 0.03;	 www.comune.santacrocedimagliano.cb.it
0%;	 15;	 0.03;	 www.comune.pontenure.pc.it
0%;	 15;	 0.03;	 www.comune.mogorella.or.it
0%;	 15;	 0.03;	 www.comune.mazzin.tn.it
0%;	 15;	 0.03;	 www.comune.luserna.tn.it
0%;	 15;	 0.03;	 www.comune.maglianoalpi.cn.it
0%;	 15;	 0.03;	 www.comune.lenna.bg.it
0%;	 15;	 0.03;	 www.comune.guardialfiera.cb.it
0%;	 15;	 0.03;	 www.comune.fordongianus.or.it
0%;	 15;	 0.03;	 www.comune.ferriere.pc.it
0%;	 15;	 0.03;	 www.comune.civitadantino.aq.it
0%;	 15;	 0.03;	 www.comune.cagli.ps.it
0%;	 15;	 0.03;	 https://www.comunebuggerru.it/
0%;	 15;	 0.03;	 www.comunebortigiadas.it
0%;	 15;	 0.03;	 www.comune.acicatena.ct.it
0%;	 16;	 0.03;	 www.comune.callabiana.bi.it
0%;	 16;	 0.03;	 www.comune.torrazzacoste.pv.it
0%;	 16;	 0.03;	 www.comune.spoltore.pe.it
0%;	 16;	 0.03;	 www.comune.santostefanolodigiano.lo.it
0%;	 16;	 0.03;	 www.comune.sangiorgiolucano.mt.it
0%;	 16;	 0.03;	 www.comune.roccasusella.pv.it
0%;	 16;	 0.03;	 www.comune.rizziconi.rc.it
0%;	 16;	 0.03;	 www.comunedipompeiana.net
0%;	 16;	 0.03;	 www.comune.pellizzano.tn.it
0%;	 16;	 0.03;	 www.comune.ortasangiulio.no.it
0%;	 16;	 0.03;	 www.comune.narni.tr.it
0%;	 16;	 0.03;	 www.mondaino.com
0%;	 16;	 0.03;	 www.comune.minucciano.lu.it
0%;	 16;	 0.03;	 www.comune.minturno.lt.it
0%;	 16;	 0.03;	 www.comune.lavenone.bs.it
0%;	 16;	 0.03;	 www.comune.vasto.ch.it
0%;	 16;	 0.03;	 www.comune.comunnuovo.bg.it
0%;	 16;	 0.03;	 www.comune.collio.bs.it
0%;	 16;	 0.03;	 www.comune.castellettoderro.al.it
0%;	 16;	 0.03;	 www.comune.cantalupa.to.it
0%;	 16;	 0.03;	 www.comune.caluscodadda.bg.it/
0%;	 16;	 0.03;	 www.comune.cadeo.pc.it
0%;	 16;	 0.03;	 www.comune.brissogne.ao.it
0%;	 16;	 0.03;	 www.comune.bisaccia.av.it
0%;	 16;	 0.03;	 www.comune.bidoni.or.it
0%;	 17;	 0.03;	 www.comune.viggiano.pz.it
0%;	 17;	 0.03;	 www.comune.tarzo.tv.it
0%;	 17;	 0.03;	 www.comune.stazzema.lu.it
0%;	 17;	 0.03;	 www.comune.silvi.te.it
0%;	 17;	 0.03;	 www.comune.scafa.pe.it
0%;	 17;	 0.03;	 www.comune.sanzenoneallambro.mi.it
0%;	 17;	 0.03;	 www.comune.sanvincenzovalleroveto.aq.it
0%;	 17;	 0.03;	 www.comune.sanprisco.caserta.it
0%;	 17;	 0.03;	 www.comune.roaschia.cn.it
0%;	 17;	 0.03;	 www.comune.rivadisolto.bg.it
0%;	 17;	 0.03;	 www.comunedirivaligure.it
0%;	 17;	 0.03;	 www.elpinet.it
0%;	 17;	 0.03;	 www.comune.pietragalla.pz.it/
0%;	 17;	 0.03;	 www.comune.neviglie.cn.it
0%;	 17;	 0.03;	 www.comune.monteroduni.is.it/
0%;	 17;	 0.03;	 www.comune.montefiore-conca.rn.it
0%;	 17;	 0.03;	 www.comune.montecremasco.cr.it
0%;	 17;	 0.03;	 www.mombaroccio.eu
0%;	 17;	 0.03;	 www.comune.monasterodivasco.cn.it/
0%;	 17;	 0.03;	 www.comune.maser.tv.it
0%;	 17;	 0.03;	 www.comune.maddaloni.ce.it
0%;	 17;	 0.03;	 www.comunedigallicano.org
0%;	 17;	 0.03;	 www.comune.fossalto.cb.it
0%;	 17;	 0.03;	 www.comune.fratte-rosa.pu.it/
0%;	 17;	 0.03;	 www.comune.cavezzo.mo.it
0%;	 17;	 0.03;	 www.comunedicastelfrentano.it
0%;	 17;	 0.03;	 www.comunebarbona.pd.it
0%;	 17;	 0.03;	 www.comune.austis.nu.it
0%;	 18;	 0.04;	 www.comune.villanovafranca.ca.it
0%;	 18;	 0.04;	 www.vallebona.info
0%;	 18;	 0.04;	 www.comune.ulassai.og.it
0%;	 18;	 0.04;	 www.comune.valdieri.cn.it
0%;	 18;	 0.04;	 www.sannicolo.bl.it
0%;	 18;	 0.04;	 www.comune.pievealbignola.pv.it
0%;	 18;	 0.04;	 www.comune.pezzana.vc.it
0%;	 18;	 0.04;	 www.comune.palosco.bg.it
0%;	 18;	 0.04;	 www.comune.murello.cn.it
0%;	 18;	 0.04;	 www.comune.montegiordano.cs.it
0%;	 18;	 0.04;	 www.comune.mango.cn.it
0%;	 18;	 0.04;	 www.comune.farnese.vt.it
0%;	 18;	 0.04;	 www.dantadicadore.info
0%;	 18;	 0.04;	 www.comune.crodo.vb.it
0%;	 18;	 0.04;	 www.comune.castelsardo.ss.it
0%;	 18;	 0.04;	 https://www.comune.busachi.or.it/index.php
0%;	 18;	 0.04;	 www.comune.bresimo.tn.it/
0%;	 18;	 0.04;	 www.comune.brignanofrascata.al.it
0%;	 18;	 0.04;	 www.comuneardauli.it
0%;	 18;	 0.04;	 www.comune.adria.ro.it
0%;	 19;	 0.04;	 www.comune.vicari.pa.it
0%;	 19;	 0.04;	 www.comune.tollegno.bi.it
0%;	 19;	 0.04;	 www.comune.san-severo.fg.it
0%;	 19;	 0.04;	 www.comune.solbiate-arno.va.it
0%;	 19;	 0.04;	 www.comune.sanprospero.mo.it
0%;	 19;	 0.04;	 www.comune.sanraffaelecimena.to.it
0%;	 19;	 0.04;	 www.comune.cipressa.im.it
0%;	 19;	 0.04;	 comune.salmour.cn.it
0%;	 19;	 0.04;	 www.comune.polaveno.bs.it
0%;	 19;	 0.04;	 www.comune.perledo.lc.it
0%;	 19;	 0.04;	 www.comune.pedara.ct.it
0%;	 19;	 0.04;	 www.comune.origgio.va.it
0%;	 19;	 0.04;	 www.comune.muzzano.bi.it
0%;	 19;	 0.04;	 www.comune.montesilvano.pe.it
0%;	 19;	 0.04;	 www.comune.montese.mo.it
0%;	 19;	 0.04;	 www.comune.martinianapo.cn.it
0%;	 19;	 0.04;	 www.comune.livigno.so.it
0%;	 19;	 0.04;	 www.langabarolo.it
0%;	 19;	 0.04;	 www.comunecolledimezzo.ch.it
0%;	 19;	 0.04;	 www.castelgrande.gov.it
0%;	 19;	 0.04;	 www.comune.cartura.pd.it
0%;	 20;	 0.04;	 www.comune.comanoterme.tn.it
0%;	 20;	 0.04;	 www.comune.poggiotorriana.rn.it
0%;	 20;	 0.04;	 www.comune.tricerro.vc.it
0%;	 20;	 0.04;	 www.comune.serrone.fr.it
0%;	 20;	 0.04;	 www.comune.serle.bs.it/
0%;	 20;	 0.04;	 www.comune.scalenghe.to.it
0%;	 20;	 0.04;	 www.comune.redavalle.pv.it
0%;	 20;	 0.04;	 www.comune.pompei.na.it
0%;	 20;	 0.04;	 www.comune.pietracupa.cb.it
0%;	 20;	 0.04;	 www.perlo.it
0%;	 20;	 0.04;	 www.comune.pagno.cn.it
0%;	 20;	 0.04;	 www.comune.olmoalbrembo.bg.it
0%;	 20;	 0.04;	 www.comune.oriolo.cs.it
0%;	 20;	 0.04;	 www.comune.monopoli.ba.it
0%;	 20;	 0.04;	 www.comune.mogliano.mc.it
0%;	 20;	 0.04;	 www.comune.loreo.ro.it
0%;	 20;	 0.04;	 www.comune.isoladelgiglio.gr.it/
0%;	 20;	 0.04;	 www.comune.ittiri.ss.it
0%;	 20;	 0.04;	 www.comune.moncenisio.to.it
0%;	 20;	 0.04;	 www.comune.decimomannu.ca.it
0%;	 20;	 0.04;	 www.comune.costanzana.vc.it/
0%;	 20;	 0.04;	 www.comune.corvino-san-quirico.pv.it
0%;	 20;	 0.04;	 www.santostefanodicadore.info
0%;	 20;	 0.04;	 www.comune.castiglione.mn.it
0%;	 20;	 0.04;	 www.comune.bagnone.ms.it
0%;	 20;	 0.04;	 www.comune.bairo.to.it
0%;	 20;	 0.04;	 www.comune.gambettola.fc.it
0%;	 20;	 0.04;	 www.comuneaggius.it
0%;	 21;	 0.04;	 www.comune.villarsancostanzo.cn.it
0%;	 21;	 0.04;	 www.comune.torinodisangro.ch.it
0%;	 21;	 0.04;	 www.comune.sefro.mc.it
0%;	 21;	 0.04;	 www.comune.rosignano.livorno.it
0%;	 21;	 0.04;	 www.comune.roevolciano.bs.it
0%;	 21;	 0.04;	 www.comune.rapolla.pz.it/
0%;	 21;	 0.04;	 www.comune.parrano.tr.it
0%;	 21;	 0.04;	 www.comuneomignano.gov.it
0%;	 21;	 0.04;	 www.comune.novedrate.co.it
0%;	 21;	 0.04;	 www.comune.montecchiadicrosara.vr.it
0%;	 21;	 0.04;	 www.comune.gorgonzola.mi.it
0%;	 21;	 0.04;	 www.comune.frassilongo.tn.it
0%;	 21;	 0.04;	 www.comune.fiesse.bs.it
0%;	 21;	 0.04;	 www.comune.farasanmartino.ch.it
0%;	 21;	 0.04;	 www.comune.dronero.cn.it
0%;	 21;	 0.04;	 www.comune.cavallermaggiore.cn.it
0%;	 21;	 0.04;	 www.comune.castropignano.cb.it
0%;	 21;	 0.04;	 www.casteldilucio.eu
0%;	 21;	 0.04;	 www.comune.casalbuono.sa.it
0%;	 21;	 0.04;	 www.comune.borgonesusa.to.it
0%;	 21;	 0.04;	 www.comunedibibbiena.gov.it
0%;	 22;	 0.04;	 www.comune.torresangiorgio.cn.it
0%;	 22;	 0.04;	 www.comune.seulo.ca.it
0%;	 22;	 0.04;	 www.comune.sennori.ss.it
0%;	 22;	 0.04;	 www.comune.notaresco.te.it/
0%;	 22;	 0.04;	 www.comune.marentino.to.it
0%;	 22;	 0.04;	 www.comune.lequiotanaro.cn.it
0%;	 22;	 0.04;	 www.comune.fombio.lo.it
0%;	 22;	 0.04;	 www.comunecanegrate.it/
0%;	 22;	 0.04;	 www.comune.bariano.bg.it
0%;	 23;	 0.05;	 www.comune.sonnino.latina.it
0%;	 23;	 0.05;	 comune.setzu.vs.it
0%;	 23;	 0.05;	 www.comune.sarre.ao.it
0%;	 23;	 0.05;	 www.sanclemente.it
0%;	 23;	 0.05;	 www.comune.rossana.cn.it
0%;	 23;	 0.05;	 www.comune.romana.ss.it
0%;	 23;	 0.05;	 www.comune.pettorano.aq.it
0%;	 23;	 0.05;	 www.comune.neoneli.or.it
0%;	 23;	 0.05;	 www.comune.maceratafeltria.pu.it
0%;	 23;	 0.05;	 www.comune.lode.nu.it
0%;	 23;	 0.05;	 www.comune.lesegno.cn.it
0%;	 23;	 0.05;	 www.comune.civitellacasanova.pe.it
0%;	 23;	 0.05;	 www.comune.casatisma.pv.it
0%;	 23;	 0.05;	 www.comune.canelli.at.it
0%;	 23;	 0.05;	 www.comune.barile.pz.it
0%;	 23;	 0.05;	 www.comune.antegnate.bg.it
0%;	 24;	 0.05;	 www.comune.valleve.bg.it
0%;	 24;	 0.05;	 www.comune.santostefanoalmare.im.it
0%;	 24;	 0.05;	 www.comune.senis.or.it
0%;	 24;	 0.05;	 www.comune.sanlucido.cs.it
0%;	 24;	 0.05;	 www.comune.aglientu.ot.it
0%;	 24;	 0.05;	 www.comune.pontesanpietro.bg.it
0%;	 24;	 0.05;	 www.comune.montanera.cn.it
0%;	 24;	 0.05;	 www.comune.monesiglio.cn.it
0%;	 24;	 0.05;	 www.comune.cavizzana.tn.it/
0%;	 24;	 0.05;	 www.comune.castiglioneacasauria.pe.it
0%;	 24;	 0.05;	 www.comune.castellomolina.tn.it
0%;	 24;	 0.05;	 www.amalfi.gov.it
0%;	 24;	 0.05;	 www.comune.acqualagna.ps.it
0%;	 24;	 0.05;	 www.comune.albanodilucania.pz.it
0%;	 25;	 0.05;	 www.comune.conta.tn.it
0%;	 25;	 0.05;	 www.comune.teverola.ce.it
0%;	 25;	 0.05;	 www.comune.stroppiana.vc.it
0%;	 25;	 0.05;	 www.comune.santarsenio.sa.it
0%;	 25;	 0.05;	 www.comune.sangiacomo.cb.it
0%;	 25;	 0.05;	 www.comune.rottofreno.pc.it
0%;	 25;	 0.05;	 www.comune.pocapaglia.cn.it
0%;	 25;	 0.05;	 www.comune.pianfei.cn.it
0%;	 25;	 0.05;	 www.comune.nurallao.ca.it
0%;	 25;	 0.05;	 www.comune.mottamontecorvino.fg.it
0%;	 25;	 0.05;	 www.comune.menconico.pv.it
0%;	 25;	 0.05;	 www.comune.fontecchio.aq.it
0%;	 25;	 0.05;	 www.comune.coassolo.to.it
0%;	 25;	 0.05;	 www.comune.cittadicastello.pg.it
0%;	 25;	 0.05;	 www.comune.castiglione.te.it
0%;	 25;	 0.05;	 www.comune.castelraimondo.mc.it/
0%;	 25;	 0.05;	 www.comune.bellino.cn.it
0%;	 25;	 0.05;	 www.comune.belgioioso.pv.it
0%;	 26;	 0.05;	 www.comune-rosasco.it
0%;	 26;	 0.05;	 www.rivarolocanavese.it
0%;	 26;	 0.05;	 www.comune.pescopennataro.is.it
0%;	 26;	 0.05;	 www.comune.montaldodimondovi.cn.it
0%;	 26;	 0.05;	 www.comune.lagnasco.cn.it
0%;	 26;	 0.05;	 www.comune.castelvetro-di-modena.mo.it
0%;	 26;	 0.05;	 www.comune.castellalto.te.it
0%;	 26;	 0.05;	 www.comune.caronnovaresino.va.it
0%;	 26;	 0.05;	 comune.camisano.cr.it
0%;	 26;	 0.05;	 www.comune.caldes.tn.it
0%;	 26;	 0.05;	 www.comune.bisenti.te.it
0%;	 26;	 0.05;	 www.comune.bernateticino.mi.it
0%;	 26;	 0.05;	 www.comune.sinalunga.si.it
0%;	 26;	 0.05;	 www.comune.arielli.ch.it
0%;	 27;	 0.05;	 www.comune.torremaggiore.fg.it
0%;	 27;	 0.05;	 www.comune.torchiarolo.br.it
0%;	 27;	 0.05;	 www.comune.tavenna.cb.it
0%;	 27;	 0.05;	 www.comune.romagnese.pv.it
0%;	 27;	 0.05;	 www.comune.raddainchianti.si.it
0%;	 27;	 0.05;	 www.comune.prizzi.pa.it/
0%;	 27;	 0.05;	 www.comune.perosaargentina.to.it
0%;	 27;	 0.05;	 www.comune.panni.fg.it
0%;	 27;	 0.05;	 www.comunemonteuroero.cn.it
0%;	 27;	 0.05;	 www.comune.felino.pr.it
0%;	 27;	 0.05;	 www.comune.chiarano.tv.it
0%;	 27;	 0.05;	 www.comune.celenzavalfortore.fg.it
0%;	 27;	 0.05;	 www.comune.bono.ss.it
0%;	 27;	 0.05;	 www.comune.assolo.or.it
0%;	 28;	 0.05;	 www.comune.tovo-san-giacomo.sv.it
0%;	 28;	 0.05;	 www.comune.saccolongo.pd.it
0%;	 28;	 0.05;	 www.comune.pramollo.to.it
0%;	 28;	 0.05;	 www.comune.odalengogrande.al.it/
0%;	 28;	 0.05;	 www.comune.monterossoalmo.gov.it
0%;	 28;	 0.05;	 www.comune.gairo.og.it
0%;	 28;	 0.05;	 www.comune.cavaglia.bi.it
0%;	 28;	 0.05;	 www.comunebudoni.gov.it/
0%;	 28;	 0.05;	 www.comune.borgosandalmazzo.cn.it
0%;	 28;	 0.05;	 www.comunearba.it
0%;	 28;	 0.05;	 www.comune.alanno.pe.it
0%;	 29;	 0.06;	 www.comune.zafferana-etnea.ct.it
0%;	 29;	 0.06;	 www.comune.villarbasse.to.it
0%;	 29;	 0.06;	 www.comune.trezzosulladda.mi.it
0%;	 29;	 0.06;	 www.comune.scarnafigi.cn.it
0%;	 29;	 0.06;	 www.comune.provvidenti.cb.it
0%;	 29;	 0.06;	 www.comune.pimentel.ca.it
0%;	 29;	 0.06;	 www.comune.ozieri.ss.it
0%;	 29;	 0.06;	 www.comune.mezzanamortigliengo.bi.it
0%;	 29;	 0.06;	 www.comune.melle.cn.it
0%;	 29;	 0.06;	 www.comune.lacchiarella.mi.it
0%;	 29;	 0.06;	 www.comune.greve-in-chianti.fi.it
0%;	 29;	 0.06;	 www.gorlamaggiore.org
0%;	 29;	 0.06;	 www.comune.follina.tv.it
0%;	 29;	 0.06;	 www.comune.fasano.br.it
0%;	 29;	 0.06;	 www.comune.cherasco.cn.it
0%;	 29;	 0.06;	 www.comune.canossa.re.it
0%;	 29;	 0.06;	 www.comune.brembio.lo.it
0%;	 29;	 0.06;	 comune.bisegna.aq.it
0%;	 30;	 0.06;	 www.comune.zandobbio.bg.it
0%;	 30;	 0.06;	 www.comunesantalucia.it
0%;	 30;	 0.06;	 www.comune.sanluri.su.it
0%;	 30;	 0.06;	 www.comune.sandigliano.bi.it
0%;	 30;	 0.06;	 www.comune.lessolo.to.it
0%;	 30;	 0.06;	 www.comune.giaveno.to.it
0%;	 30;	 0.06;	 www.comune.candiolo.torino.it
0%;	 30;	 0.06;	 www.comune.campogalliano.mo.it
0%;	 30;	 0.06;	 www.comune.borzonasca.ge.it/
0%;	 31;	 0.06;	 www.comune.luvinate.va.it
0%;	 31;	 0.06;	 www.comunemeanasardo.it
0%;	 31;	 0.06;	 www.comune.valdidentro.so.it
0%;	 31;	 0.06;	 www.comune.siddi.su.it
0%;	 31;	 0.06;	 www.comune.sanzeno.tn.it
0%;	 31;	 0.06;	 www.comune.moiodecalvi.bg.it
0%;	 31;	 0.06;	 www.comunefrazzano.it
0%;	 31;	 0.06;	 www.comune.drena.tn.it/
0%;	 31;	 0.06;	 www.comune.dianodalba.cn.it
0%;	 31;	 0.06;	 www.comune.cedegolo.bs.it
0%;	 31;	 0.06;	 www.comune.castelsangiovanni.pc.it/
0%;	 31;	 0.06;	 www.comune.arzago.bg.it
0%;	 32;	 0.06;	 www.comune.sommavesuviana.na.it
0%;	 32;	 0.06;	 www.comune.oldenico.vc.it
0%;	 32;	 0.06;	 www.comune.mozzanica.bg.it
0%;	 32;	 0.06;	 www.comune.mollia.vc.it
0%;	 32;	 0.06;	 www.lascari.gov.it
0%;	 32;	 0.06;	 www.comune.galtelli.nu.it
0%;	 32;	 0.06;	 www.comune.francofonte.sr.it/
0%;	 32;	 0.06;	 www.comunedro.it
0%;	 33;	 0.06;	 www.comune.castelgerundo.lo.it
0%;	 33;	 0.06;	 www.comune.turbigo.mi.it
0%;	 33;	 0.06;	 www.comune.sclafanibagni.pa.it
0%;	 33;	 0.06;	 www.comune.martis.ss.it
0%;	 33;	 0.06;	 www.comune.fontanella.bg.it
0%;	 33;	 0.06;	 www.comune.desana.vc.it
0%;	 33;	 0.06;	 www.comune.castellettostura.cn.it
0%;	 33;	 0.06;	 www.comune.brescello.re.it
0%;	 33;	 0.06;	 www.comune.ardara.ss.it
0%;	 34;	 0.07;	 www.comune.viareggio.lu.it/
0%;	 34;	 0.07;	 www.comune.terzolas.tn.it
0%;	 34;	 0.07;	 www.comune.tessennano.vt.it
0%;	 34;	 0.07;	 www.santelpidioamare.it
0%;	 34;	 0.07;	 www.comune.rive.vc.it
0%;	 34;	 0.07;	 www.comune.rifreddo.cn.it
0%;	 34;	 0.07;	 www.comune.pozzolengo.bs.it
0%;	 34;	 0.07;	 www.comune.pietraroja.bn.it
0%;	 34;	 0.07;	 www.comune.triora.im.it
0%;	 34;	 0.07;	 www.comune.demonte.cn.it
0%;	 34;	 0.07;	 www.comune.chiusi.si.it
0%;	 34;	 0.07;	 www.comune.centallo.cn.it
0%;	 34;	 0.07;	 www.comune.celenzasultrigno.ch.it
0%;	 34;	 0.07;	 www.comuneditortoli.it
0%;	 35;	 0.07;	 www.comune.villata.vc.it
0%;	 35;	 0.07;	 www.comune.tricarico.mt.it
0%;	 35;	 0.07;	 www.comune.taviano.le.it
0%;	 35;	 0.07;	 www.comune.santagatadipuglia.fg.it
0%;	 35;	 0.07;	 www.nucetto.net
0%;	 35;	 0.07;	 www.comune.castelnuovodiceva.cn.it
0%;	 36;	 0.07;	 www.comune.stintino.ss.it
0%;	 36;	 0.07;	 www.comune.santangeloinpontano.mc.it/
0%;	 36;	 0.07;	 www.comune.sancanziandisonzo.go.it
0%;	 36;	 0.07;	 www.comune.padula.sa.it
0%;	 36;	 0.07;	 www.comune.inversopinasca.to.it
0%;	 36;	 0.07;	 www.comune.cesaro.me.it
0%;	 37;	 0.07;	 www.comune.santangelolodigiano.lo.it
0%;	 37;	 0.07;	 www.comune.posada.nu.it
0%;	 37;	 0.07;	 www.comune.garzigliana.to.it
0%;	 38;	 0.07;	 www.comunetorreberetti.pv.it
0%;	 38;	 0.07;	 www.comune.sommarivaperno.cn.it
0%;	 38;	 0.07;	 www.comune.ricaldone.al.it
0%;	 38;	 0.07;	 www.comune.piobesi.to.it
0%;	 38;	 0.07;	 www.comune.civitacastellana.vt.it
0%;	 38;	 0.07;	 www.comunecastiglionetinella.it
0%;	 39;	 0.08;	 www.comune.troia.fg.it
0%;	 39;	 0.08;	 www.comune.peveragno.cn.it
0%;	 39;	 0.08;	 www.comune.carisio.vc.it
0%;	 39;	 0.08;	 www.comune.campigliacervo.bi.it
0%;	 40;	 0.08;	 www.comune.sordio.lo.it
0%;	 40;	 0.08;	 www.comune.roccafortemondovi.cn.it
0%;	 40;	 0.08;	 www.comune.rioneroinvulture.pz.it
0%;	 40;	 0.08;	 www.comune.bisceglie.bt.it
0%;	 40;	 0.08;	 www.comune.bibiana.to.it
0%;	 41;	 0.08;	 www.comune.vietridipotenza.pz.it
0%;	 41;	 0.08;	 www.comune.tresnuraghes.or.it
0%;	 41;	 0.08;	 WWW.COMUNE.TAVOLETO.PU.IT
0%;	 41;	 0.08;	 www.comune.villasantantonio.or.it
0%;	 41;	 0.08;	 www.comune.monteromano.vt.it
0%;	 41;	 0.08;	 www.comune.campagnola-emilia.re.it
0%;	 41;	 0.08;	 www.comune.barga.lu.it
0%;	 41;	 0.08;	 www.comunedibalocco.it
0%;	 42;	 0.08;	 www.comune.rapone.pz.it/
0%;	 42;	 0.08;	 www.comune.ravarino.mo.it
0%;	 42;	 0.08;	 www.comune.occhieppo-inferiore.bi.it
0%;	 42;	 0.08;	 www.comune.mompantero.to.it
0%;	 43;	 0.08;	 www.comune.subbiano.ar.it
0%;	 43;	 0.08;	 www.comune.serravalle-pistoiese.pt.it
0%;	 43;	 0.08;	 www.comune.brondello.cn.it
0%;	 44;	 0.09;	 www.comune.vigone.to.it
0%;	 44;	 0.09;	 www.comune.roccavignale.sv.it
0%;	 44;	 0.09;	 comune.isolabella.to.it
0%;	 44;	 0.09;	 www.comune.corsico.mi.it
0%;	 44;	 0.09;	 www.comune.casanovaelvo.vc.it
0%;	 44;	 0.09;	 www.comune.alzano.bg.it
0%;	 45;	 0.09;	 www.comune.villadelbosco.bi.it
0%;	 45;	 0.09;	 www.comune.suni.or.it
0%;	 45;	 0.09;	 www.comune.montagnana.pd.it
0%;	 45;	 0.09;	 www.comune.fosso.ve.it
0%;	 45;	 0.09;	 www.comune.clavesana.cn.it
0%;	 46;	 0.09;	 www.comune.vigliano.at.it
0%;	 46;	 0.09;	 www.comune.torresina.cn.it
0%;	 46;	 0.09;	 www.comune.ponzone.al.it
0%;	 46;	 0.09;	 www.unionemunicipia.it
0%;	 46;	 0.09;	 www.comune.loazzolo.at.it
0%;	 46;	 0.09;	 www.comune.gifflenga.bi.it
0%;	 47;	 0.09;	 www.comune.santhia.vc.it
0%;	 47;	 0.09;	 www.comune.rora.to.it
0%;	 47;	 0.09;	 www.comune.rocchettapalafea.at.it
0%;	 47;	 0.09;	 www.comune.petraliasoprana.pa.it
0%;	 47;	 0.09;	 www.comune.ottiglio.al.it
0%;	 47;	 0.09;	 www.comune.moncestino.al.it
0%;	 47;	 0.09;	 www.comune.melpignano.le.it
0%;	 47;	 0.09;	 www.comune.gaeta.lt.it
0%;	 47;	 0.09;	 www.comune.cunico.at.it
0%;	 47;	 0.09;	 www.comune.casorzo.at.it
0%;	 47;	 0.09;	 www.comune.cappadocia.aq.it
0%;	 47;	 0.09;	 www.comune.bonvicino.cn.it
0%;	 48;	 0.09;	 www.comune.settime.at.it
0%;	 48;	 0.09;	 www.comune.monterossograna.cn.it
0%;	 48;	 0.09;	 www.comune.mongardino.at.it
0%;	 48;	 0.09;	 www.comune.mamoiada.nu.it
0%;	 48;	 0.09;	 www.comune.celledimacra.cn.it
0%;	 49;	 0.10;	 www.comune.roccasparvera.cn.it
0%;	 49;	 0.10;	 www.comune-pernumia.it
0%;	 49;	 0.10;	 www.comunediarbus.gov.it
0%;	 49;	 0.10;	 www.comune.amaseno.net
0%;	 50;	 0.10;	 www.comunesmcoghinas.it
0%;	 50;	 0.10;	 www.comune.villafalletto.cn.it
0%;	 50;	 0.10;	 www.comune.sommarivadelbosco.cn.it
0%;	 50;	 0.10;	 www.comune.sangillio.to.it
0%;	 50;	 0.10;	 www.comune.rocchetta-belbo.cn.it
0%;	 50;	 0.10;	 www.comune.roccaverano.at.it
0%;	 50;	 0.10;	 www.comune.piedicavallo.bi.it
0%;	 50;	 0.10;	 www.comune.moretta.cn.it
0%;	 50;	 0.10;	 www.comunearzano.it
0%;	 50;	 0.10;	 www.comune.altavillamonferrato.al.it
0%;	 51;	 0.10;	 www.comune.sangiorgiomonferrato.al.it
0%;	 51;	 0.10;	 www.comune.sangermanochisone.to.it
0%;	 51;	 0.10;	 www.comune.penango.at.it
0%;	 51;	 0.10;	 www.comune.fobello.vc.it
0%;	 51;	 0.10;	 www.comune.comiziano.na.it
0%;	 51;	 0.10;	 www.comune.cervatto.vc.it
0%;	 51;	 0.10;	 www.comune.acceglio.cn.it
0%;	 52;	 0.10;	 www.comune.valdilana.bi.it
0%;	 52;	 0.10;	 www.comune.talana.og.it
0%;	 52;	 0.10;	 www.comune.tursi.mt.it
0%;	 52;	 0.10;	 www.comune.valfurva.so.it
0%;	 52;	 0.10;	 www.comune.trebisacce.cs.it/
0%;	 52;	 0.10;	 www.comune.frassino.cn.it
0%;	 52;	 0.10;	 www.comune.dolianova.ca.it
0%;	 52;	 0.10;	 www.comune.casteldelfino.cn.it
0%;	 53;	 0.10;	 www.comune.pergola.pu.it
0%;	 53;	 0.10;	 www.comune.lisio.cn.it
0%;	 53;	 0.10;	 www.comune.isoladasti.at.it/
0%;	 53;	 0.10;	 www.comune.farageradadda.bg.it
0%;	 54;	 0.11;	 www.comune.roccadaspide.sa.gov.it
0%;	 54;	 0.11;	 www.comune.pradleves.cn.it
0%;	 54;	 0.11;	 www.comune.portula.bi.it
0%;	 54;	 0.11;	 www.comune.moncrivello.vc.it
0%;	 54;	 0.11;	 www.comune.miranda.is.it
0%;	 54;	 0.11;	 www.comune.alagnavalsesia.vc.it
0%;	 55;	 0.11;	 www.comune.montigliomonferrato.at.it
0%;	 55;	 0.11;	 www.comune.villadeati.al.it
0%;	 55;	 0.11;	 www.comune.moncucco.asti.it/
0%;	 55;	 0.11;	 www.comune.longano.is.it
0%;	 55;	 0.11;	 www.comune.carapelle.fg.it
0%;	 55;	 0.11;	 www.comune.castellodiannone.at.it
0%;	 56;	 0.11;	 www.comune.vasia.im.it
0%;	 56;	 0.11;	 www.comune.roascio.cn.it
0%;	 56;	 0.11;	 www.comune.piea.at.it
0%;	 56;	 0.11;	 www.comune.moriondo.to.it
0%;	 56;	 0.11;	 www.comune.montemale.cn.it
0%;	 56;	 0.11;	 www.comune.giarole.al.it
0%;	 56;	 0.11;	 www.comune.frinco.at.it
0%;	 56;	 0.11;	 www.comune.copiano.pv.it
0%;	 57;	 0.11;	 www.comune.villastellone.to.it
0%;	 57;	 0.11;	 www.comune.valloriate.cn.it
0%;	 57;	 0.11;	 comune.sennariolo.or.it
0%;	 57;	 0.11;	 www.comune.mirabellomonferrato.al.it
0%;	 57;	 0.11;	 www.comunedibaunei.it
0%;	 58;	 0.11;	 www.comune.roggianogravina.cs.it
0%;	 58;	 0.11;	 www.comune.prela.im.it
0%;	 58;	 0.11;	 www.comunedipollutri.it
0%;	 58;	 0.11;	 www.comune.levice.cn.it
0%;	 59;	 0.12;	 www.comune.zimone.bi.it
0%;	 59;	 0.12;	 www.comune.monasterodilanzo.to.it
0%;	 59;	 0.12;	 www.comune.velezzolomellina.pv.it
0%;	 59;	 0.12;	 www.comune.valgrana.cn.it
0%;	 59;	 0.12;	 www.comune.montechiarodacqui.al.it
0%;	 59;	 0.12;	 www.comune.monasterolocasotto.cn.it
0%;	 59;	 0.12;	 www.comune.ciglie.cn.it
0%;	 59;	 0.12;	 www.comune.cerrettolanghe.cn.it
0%;	 59;	 0.12;	 www.comune.castelmagno.cn.it/
0%;	 59;	 0.12;	 www.comune.arguello.cn.it
0%;	 59;	 0.12;	 www.comune.albarettodellatorre.cn.it
0%;	 60;	 0.12;	 www.comune.villaurbana.or.it
0%;	 60;	 0.12;	 www.comune.sandonatodininea.cs.it
0%;	 60;	 0.12;	 www.comune.sassano.sa.it
0%;	 60;	 0.12;	 www.comune.monvalle.va.it
0%;	 60;	 0.12;	 www.comune.lasplassas.vs.it
0%;	 60;	 0.12;	 www.comunedilanusei.it
0%;	 61;	 0.12;	 www.comune.stanghella.pd.it
0%;	 61;	 0.12;	 www.comune.riosaliceto.re.it
0%;	 61;	 0.12;	 www.comune.ponzanomonferrato.al.it
0%;	 61;	 0.12;	 www.comune.mattie.to.it
0%;	 61;	 0.12;	 www.comune.marsaglia.cn.it/
0%;	 61;	 0.12;	 www.comune.cervasca.cn.it
0%;	 62;	 0.12;	 www.comunezubiena.it
0%;	 62;	 0.12;	 www.comune.villanovacanavese.to.it
0%;	 62;	 0.12;	 www.comune.portacomaro.at.it
0%;	 62;	 0.12;	 www.comune.niellatanaro.cn.it
0%;	 62;	 0.12;	 www.comune.narbolia.or.it/
0%;	 62;	 0.12;	 www.comune.bassignana.al.it
0%;	 63;	 0.12;	 www.comune.villanovasolaro.cn.it
0%;	 63;	 0.12;	 www.comune.rosazza.bi.it
0%;	 63;	 0.12;	 www.comune.gaiola.cn.it
0%;	 63;	 0.12;	 www.comune.almese.to.it
0%;	 64;	 0.13;	 www.comune.viale.at.it
0%;	 64;	 0.13;	 www.comune.vezzanoligure.sp.it
0%;	 64;	 0.13;	 www.comune.nonio.vb.it
0%;	 64;	 0.13;	 www.comune.mottadeconti.vc.it/
0%;	 64;	 0.13;	 www.comune.montelapiano.ch.it
0%;	 64;	 0.13;	 www.comune.mombarcaro.cn.it
0%;	 64;	 0.13;	 www.comune.maratea.pz.it
0%;	 64;	 0.13;	 www.comune.badalucco.im.it
0%;	 65;	 0.13;	 www.comune.abetonecutigliano.pt.it
0%;	 65;	 0.13;	 www.comunemoranocalabro.it
0%;	 65;	 0.13;	 www.comune.lequioberria.cn.it
0%;	 65;	 0.13;	 www.comune.corropoli.te.it
0%;	 65;	 0.13;	 https://www.comune.cislago.va.it
0%;	 66;	 0.13;	 www.comune.vallanzengo.bi.it
0%;	 66;	 0.13;	 www.comunetertenia.it
0%;	 66;	 0.13;	 www.comune.sini.or.it
0%;	 66;	 0.13;	 www.comune.sanbenedettobelbo.cn.it
0%;	 66;	 0.13;	 http://www.comune.monticelli.pc.it
0%;	 66;	 0.13;	 www.comune.ruinas.or.it
0%;	 66;	 0.13;	 www.comune.dorno.pv.it
0%;	 66;	 0.13;	 www.cigliano.net
0%;	 67;	 0.13;	 www.comune.scagnello.cn.it
0%;	 67;	 0.13;	 www.comune.rittana.cn.it
0%;	 67;	 0.13;	 www.comune.onifai.nu.it/
0%;	 67;	 0.13;	 www.comune.monti.ss.it
0%;	 67;	 0.13;	 www.comune.civezza.im.it
0%;	 67;	 0.13;	 www.comune.cervarese.pd.it
0%;	 68;	 0.13;	 www.comune.frassinetopo.al.it
0%;	 68;	 0.13;	 www.comune.cravanzana.cn.it
0%;	 68;	 0.13;	 www.comune.costarainera.im.it
0%;	 68;	 0.13;	 www.comune.civita.cs.it/
0%;	 68;	 0.13;	 www.comune.bottanuco.bg.it
0%;	 68;	 0.13;	 www.comune.bosia.cn.it
0%;	 69;	 0.14;	 www.comune.monterotondomarittimo.gr.it
0%;	 69;	 0.14;	 www.comune.jerzu.og.it
0%;	 69;	 0.14;	 http://www.comune.casapinta.bi.it/
0%;	 69;	 0.14;	 www.comune.dolcedo.im.it
0%;	 70;	 0.14;	 www.albino.it
0%;	 71;	 0.14;	 comune.san-gregorio-di-catania.ct.it
0%;	 71;	 0.14;	 www.comune.salesangiovanni.cn.it
0%;	 71;	 0.14;	 www.comune.presenzano.ce.it
0%;	 71;	 0.14;	 www.comune.gioiadelcolle.ba.it
0%;	 71;	 0.14;	 www.comune.farigliano.cn.it
0%;	 71;	 0.14;	 www.comune.castelletto-uzzone.cn.it/
0%;	 71;	 0.14;	 www.comune.buronzo.vc.it
0%;	 71;	 0.14;	 www.comune.aisone.cn.it
0%;	 72;	 0.14;	 www.comunesarule.nu.it
0%;	 72;	 0.14;	 www.comune.lignana.vc.it
0%;	 73;	 0.14;	 www.comune.solonghello.al.it
0%;	 73;	 0.14;	 www.comune.castelvetro.pc.it
0%;	 73;	 0.14;	 www.comune.borgosansiro.pv.it
0%;	 73;	 0.14;	 www.comune.borghettosantospirito.sv.it
0%;	 74;	 0.15;	 www.comune.valganna.va.it
0%;	 74;	 0.15;	 www.comune.scoppito.aq.it
0%;	 74;	 0.15;	 www.comune.salivercellese.vc.it
0%;	 74;	 0.15;	 www.comune.pontida.bg.it
0%;	 74;	 0.15;	 www.comune.genola.cn.it
0%;	 74;	 0.15;	 www.comune.curino.bi.it
0%;	 74;	 0.15;	 www.comune.castelnuovo-rangone.mo.it
0%;	 74;	 0.15;	 www.comunedicastellaro.it
0%;	 74;	 0.15;	 www.comune.altomonte.cs.it
0%;	 75;	 0.15;	 www.comune.varallo.vc.it
0%;	 75;	 0.15;	 www.comune.torrazzo.bi.it
0%;	 75;	 0.15;	 www.comune.serralungadalba.cn.it
0%;	 75;	 0.15;	 www.comune.ruffia.cn.it
0%;	 75;	 0.15;	 www.comune.niellabelbo.cn.it
0%;	 75;	 0.15;	 www.comune.gorzegno.cn.it
0%;	 76;	 0.15;	 www.comune.vallesannicolao.bi.it
0%;	 76;	 0.15;	 www.comune.tornolo.pr.it
0%;	 76;	 0.15;	 www.comune.pertengo.vc.it
0%;	 76;	 0.15;	 www.comune.crova.vc.it
0%;	 76;	 0.15;	 www.comune.castino.cn.it
0%;	 77;	 0.15;	 www.comune.roddi.cn.it
0%;	 77;	 0.15;	 www.comune.gesico.su.it
0%;	 77;	 0.15;	 www.comune.feisoglio.cn.it
0%;	 78;	 0.15;	 www.comune.siliqua.ca.it
0%;	 78;	 0.15;	 www.comune.faule.cn.it
0%;	 79;	 0.15;	 www.comune.verduno.cn.it
0%;	 79;	 0.15;	 www.comune.cossanobelbo.cn.it
0%;	 79;	 0.15;	 www.comune.bossolasco.cn.it
0%;	 79;	 0.15;	 www.comune.beinette.cn.it
0%;	 79;	 0.15;	 www.comunebarano.it/
0%;	 80;	 0.16;	 www.comune.roccadebaldi.cn.it/
0%;	 80;	 0.16;	 www.comune.orotelli.nu.it
0%;	 81;	 0.16;	 www.comune.serole.at.it
0%;	 81;	 0.16;	 www.comune.oriolitta.lo.it
0%;	 81;	 0.16;	 www.comune.caresana.vc.it
0%;	 81;	 0.16;	 www.comune.angrogna.to.it
0%;	 82;	 0.16;	 www.comune.borriana.bi.it
0%;	 82;	 0.16;	 www.comuneborgovercelli.it/
0%;	 82;	 0.16;	 www.comune.bonnanaro.ss.it
0%;	 83;	 0.16;	 www.comune.gamalero.al.it
0%;	 83;	 0.16;	 www.comune.calosso.at.it
0%;	 84;	 0.16;	 www.comunesanmichelemondovi.it
0%;	 84;	 0.16;	 www.comune.luccasicula.ag.it
0%;	 84;	 0.16;	 www.comune.frascaro.al.it
0%;	 84;	 0.16;	 www.comune.cortanze.at.it
0%;	 85;	 0.17;	 www.comune.torremondovi.cn.it
0%;	 85;	 0.17;	 www.comune.roburent.cn.it
0%;	 85;	 0.17;	 www.comune.casteldisangro.aq.it
0%;	 85;	 0.17;	 www.comune.baronissi.sa.it
0%;	 87;	 0.17;	 www.comune.bernezzo.cn.it
0%;	 88;	 0.17;	 www.comune.sanfre.cn.it
0%;	 88;	 0.17;	 www.comune.castagnito.cn.it
0%;	 90;	 0.18;	 www.comune.montaltocarpasio.im.it
0%;	 90;	 0.18;	 www.comunedisantavittoriadalba.it
0%;	 90;	 0.18;	 www.comune.frascineto.cs.it
0%;	 90;	 0.18;	 www.comune.atri.te.gov.it
0%;	 91;	 0.18;	 www.comune.pomaretto.to.it
0%;	 91;	 0.18;	 www.comune.donori.ca.it
0%;	 91;	 0.18;	 www.comune.castelliri.fr.it/
0%;	 92;	 0.18;	 www.comune.castelboglione.at.it/
0%;	 94;	 0.18;	 www.torrazzapiemonte.eu
0%;	 95;	 0.19;	 comune.siapiccia.or.it
0%;	 95;	 0.19;	 www.comunedisanmangodaquino.it
0%;	 95;	 0.19;	 www.comune.montevarchi.ar.it
0%;	 95;	 0.19;	 www.comune.caselle-torinese.to.it
0%;	 98;	 0.19;	 https://www.comune.venasca.cn.it
0%;	 100;	 0.20;	 www.comunepalu.it
0%;	 100;	 0.20;	 www.comune.omegna.vb.it
0%;	 101;	 0.20;	 www.comune.corato.ba.it
0%;	 102;	 0.20;	 www.comune.virlepiemonte.to.it
0%;	 103;	 0.20;	 www.comune.frassinellomonferrato.al.it
0%;	 104;	 0.20;	 www.comune.sangiustino.pg.it
0%;	 104;	 0.20;	 www.comune.marano.mo.it
0%;	 105;	 0.21;	 www.comune.castagnolemonferrato.at.it
0%;	 105;	 0.21;	 www.comune.alfianonatta.al.it
0%;	 107;	 0.21;	 www.comunesantantonioabate.it
0%;	 108;	 0.21;	 www.comune.montezemolo.cn.it
0%;	 109;	 0.21;	 www.comune.vastogirardi.is.it
0%;	 109;	 0.21;	 www.comune.montelupoalbese.cn.it
0%;	 112;	 0.22;	 www.comune.bergamasco.al.it
0%;	 112;	 0.22;	 www.comune.benevagienna.cn.it
0%;	 114;	 0.22;	 www.comune.sanlorenzodelvallo.cs.it
0%;	 115;	 0.23;	 www.comune.strembo.tn.it/
0%;	 115;	 0.23;	 www.comune.perinaldo.im.it
0%;	 115;	 0.23;	 www.comune.cissone.cn.it
0%;	 116;	 0.23;	 www.comuneperfugas.it
0%;	 117;	 0.23;	 www.comune.montediprocida.na.it
0%;	 119;	 0.23;	 www.comune.plataci.cs.it
0%;	 119;	 0.23;	 www.comune.murazzano.cn.it
0%;	 119;	 0.23;	 www.comune.albidona.cs.it
0%;	 120;	 0.24;	 www.comune.cocconato.at.it
0%;	 120;	 0.24;	 www.comune.boves.cn.it
0%;	 122;	 0.24;	 www.comune.sanbartolomeoalmare.im.it
0%;	 122;	 0.24;	 www.comune.marineo.pa.it
0%;	 124;	 0.24;	 www.comune.roasio.vc.it
0%;	 128;	 0.25;	 comune.dambel.tn.it
0%;	 130;	 0.25;	 www.serravalle-langhe.com
0%;	 138;	 0.27;	 www.bastiamondovi.info
0%;	 139;	 0.27;	 www.comune.bederovalcuvia.va.it
0%;	 143;	 0.28;	 www.comunesantulussurgiu.it
0%;	 144;	 0.28;	 www.comunebajardo.it
0%;	 146;	 0.29;	 www.comune.torrebormida.cn.it
0%;	 146;	 0.29;	 www.comune.mondavio.pu.it
0%;	 147;	 0.29;	 www.comune.olivettasanmichele.im.it
0%;	 151;	 0.30;	 www.comune.santambrogioditorino.to.it
0%;	 152;	 0.30;	 www.comuneguasila.it
0%;	 172;	 0.34;	 www.comune.belfortemonferrato.al.it
0%;	 206;	 0.40;	 www.comune.casasco.al.it
0%;	 224;	 0.44;	 www.comune.ricengo.cr.it
0%;	 259;	 0.51;	 www.comune.cesenatico.fc.it
0%;	 303;	 0.59;	 www.comune.villarboit.vc.it
0%;	 423;	 0.83;	 www.comune.collecchio.pr.it
0%;	 451;	 0.88;	 www.comune.cosenza.it
0%;	 521;	 1.02;	 www.morronedelsannio.eu
