# Share%; N docs; %  over total scanned; host
100%;	 1;	 0.01;	 www.sferisterio.it
100%;	 2;	 0.03;	 www.adbpo.gov.it
100%;	 5;	 0.07;	 www.aobrotzu.it
89%;	 9;	 0.12;	 www.aziendaforestale.tn.it
88%;	 1651;	 22.86;	 www.agenziademanio.it
83%;	 108;	 1.50;	 www.aspbassaromagna.it
69%;	 16;	 0.22;	 www.arezzo.aci.it
68%;	 37;	 0.51;	 www.catania.aci.it
62%;	 8;	 0.11;	 www.parma.aci.it
62%;	 48;	 0.66;	 www.asl.vt.it
62%;	 21;	 0.29;	 www.matera.aci.it
60%;	 5;	 0.07;	 www.comunebedollo.it
48%;	 21;	 0.29;	 www.catanzaro.aci.it
47%;	 19;	 0.26;	 www.nuoro.aci.it
43%;	 42;	 0.58;	 www.sardegnaforeste.it
41%;	 29;	 0.40;	 www.aciferrara.it
40%;	 5;	 0.07;	 www.asl.novara.it
40%;	 20;	 0.28;	 www.rovigo.aci.it
38%;	 13;	 0.18;	 www.cagliari.aci.it
38%;	 21;	 0.29;	 www.vco.aci.it
38%;	 16;	 0.22;	 www.ivrea.aci.it
37%;	 27;	 0.37;	 www.lecce.aci.it
36%;	 14;	 0.19;	 www.novara.aci.it
35%;	 17;	 0.24;	 www.trieste.aci.it
35%;	 23;	 0.32;	 www.trento.aci.it
34%;	 71;	 0.98;	 www.asst-fbf-sacco.it
33%;	 12;	 0.17;	 www.massacarrara.aci.it
33%;	 18;	 0.25;	 www.acireale.aci.it
32%;	 22;	 0.30;	 www.acsslombardia.it
31%;	 13;	 0.18;	 www.vicenza.aci.it
31%;	 36;	 0.50;	 www.siena.aci.it
30%;	 23;	 0.32;	 adbpo.gov.it
30%;	 20;	 0.28;	 www.consigliodibacinolv.it
29%;	 14;	 0.19;	 www.gorizia.aci.it
29%;	 28;	 0.39;	 www.potenza.aci.it
29%;	 56;	 0.78;	 www.adisu.umbria.it
28%;	 18;	 0.25;	 www.oristano.aci.it
27%;	 11;	 0.15;	 www.vibovalentia.aci.it
27%;	 26;	 0.36;	 www.teramo.aci.it
27%;	 15;	 0.21;	 www.agrigento.aci.it
25%;	 24;	 0.33;	 www.brescia.aci.it
25%;	 28;	 0.39;	 www.ascolipicenofermo.aci.it
24%;	 21;	 0.29;	 www.sondrio.aci.it
23%;	 13;	 0.18;	 www.pordenone.aci.it
22%;	 18;	 0.25;	 www.macerata.aci.it
22%;	 27;	 0.37;	 www.avellino.aci.it
21%;	 19;	 0.26;	 www.siracusa.aci.it
21%;	 19;	 0.26;	 www.asti.aci.it
21%;	 38;	 0.53;	 www.milano.aci.it
21%;	 24;	 0.33;	 www.ponenteligure.aci.it
21%;	 24;	 0.33;	 www.bologna.aci.it
21%;	 53;	 0.73;	 www.bari.aci.it
20%;	 10;	 0.14;	 aspcircondarioimolese.bo.it
20%;	 10;	 0.14;	 www.aslroma5.info
20%;	 15;	 0.21;	 www.como.aci.it
19%;	 37;	 0.51;	 www.pescara.aci.it
18%;	 28;	 0.39;	 www.bergamo.aci.it
17%;	 23;	 0.32;	 www.belluno.aci.it
17%;	 6;	 0.08;	 www.acilivorno.it
17%;	 18;	 0.25;	 www.enna.aci.it
16%;	 19;	 0.26;	 www.rieti.aci.it
16%;	 19;	 0.26;	 www.chieti.aci.it
16%;	 19;	 0.26;	 www.biella.aci.it
15%;	 13;	 0.18;	 www.ancona.aci.it
14%;	 14;	 0.19;	 www.viterbo.aci.it
14%;	 188;	 2.60;	 www.agcom.it
14%;	 22;	 0.30;	 www.pesarourbino.aci.it
12%;	 24;	 0.33;	 www.treviso.aci.it
12%;	 17;	 0.24;	 www.verona.aci.it
12%;	 43;	 0.60;	 www.mantova.aci.it
11%;	 19;	 0.26;	 www.forlicesena.aci.it
9%;	 11;	 0.15;	 www.aosta.aci.it
9%;	 11;	 0.15;	 www.foggia.aci.it
8%;	 24;	 0.33;	 www.perugia.aci.it
8%;	 85;	 1.18;	 www.trignosinello.it
8%;	 25;	 0.35;	 www.frosinone.aci.it
8%;	 13;	 0.18;	 www.ackv.it
7%;	 14;	 0.19;	 www.palermo.aci.it
7%;	 57;	 0.79;	 www.aslteramo.it
7%;	 15;	 0.21;	 www.caltanissetta.aci.it
6%;	 16;	 0.22;	 www.sassari.aci.it
6%;	 18;	 0.25;	 www.venezia.aci.it
5%;	 20;	 0.28;	 www.terni.aci.it
5%;	 20;	 0.28;	 www.alessandria.aci.it
5%;	 82;	 1.14;	 www.acu.ud.it
5%;	 85;	 1.18;	 liceoformiggini.edu.it
5%;	 44;	 0.61;	 www.laspezia.aci.it
4%;	 104;	 1.44;	 www.liceoformiggini.edu.it
3%;	 36;	 0.50;	 www.comune.livo.tn.it
3%;	 39;	 0.54;	 www.aslnapoli1centro.it
2%;	 64;	 0.89;	 www.acquedelchiampospa.it
1%;	 158;	 2.19;	 www.abafg.it
0%;	 1;	 0.01;	 www.acquedottopiana.it
0%;	 1;	 0.01;	 www.ato5fr.it
0%;	 1;	 0.01;	 www.venezia.aci.it.
0%;	 1;	 0.01;	 www.trapani.aci.it
0%;	 1;	 0.01;	 www.autoritadistrettoac.it
0%;	 1;	 0.01;	 www.aato4.it
0%;	 1;	 0.01;	 www.accademiabellearti.fr.it
0%;	 1;	 0.01;	 www.altoadigeriscossioni.it
0%;	 1;	 0.01;	 www.abacatanzaro.it
0%;	 1;	 0.01;	 www.accademiadellacrusca.it
0%;	 1;	 0.01;	 abaroma.it
0%;	 2;	 0.03;	 www.apuliafilmcommission.it
0%;	 2;	 0.03;	 www.aulss2.veneto.it
0%;	 2;	 0.03;	 www.cmvalledelliri.gov.it
0%;	 2;	 0.03;	 www.autoritadibacino.va.it
0%;	 2;	 0.03;	 www.albertina.academy
0%;	 2;	 0.03;	 www.atorifiutitorinese.it
0%;	 2;	 0.03;	 www.ales-spa.com
0%;	 2;	 0.03;	 www.padova.aci.it
0%;	 2;	 0.03;	 www.lucca.aci.it
0%;	 3;	 0.04;	 www.adsuaq.org
0%;	 3;	 0.04;	 www.aziendaconsortilen19.it
0%;	 3;	 0.04;	 www.abaq.it
0%;	 3;	 0.04;	 www.abacatania.it
0%;	 3;	 0.04;	 www.acercampania.it
0%;	 3;	 0.04;	 www.adb.puglia.it
0%;	 4;	 0.06;	 acireggio.it
0%;	 4;	 0.06;	 www.arezzocasa.net
0%;	 4;	 0.06;	 aca.pescara.it
0%;	 4;	 0.06;	 www.pelagallo.it
0%;	 4;	 0.06;	 www.civicatolentino.it
0%;	 4;	 0.06;	 www.atocaloreirpino.it
0%;	 4;	 0.06;	 www.aric.it
0%;	 4;	 0.06;	 www.ababo.it
0%;	 4;	 0.06;	 aspvv.it
0%;	 5;	 0.07;	 www.assoconsorzibonificafvg.it
0%;	 5;	 0.07;	 www.prato.aci.it
0%;	 5;	 0.07;	 www.brindisi.aci.it
0%;	 5;	 0.07;	 www.acavn.it
0%;	 5;	 0.07;	 www.ferrovieudinecividale.it
0%;	 6;	 0.08;	 www.odg.toscana.it
0%;	 6;	 0.08;	 odg.toscana.it
0%;	 6;	 0.08;	 www.calabrialavoro.eu
0%;	 7;	 0.10;	 www.aseaenergia.eu
0%;	 7;	 0.10;	 www.unibg.it
0%;	 7;	 0.10;	 www.pompeiturismo.it
0%;	 7;	 0.10;	 www.vercelli.aci.it
0%;	 7;	 0.10;	 www.accademiasironi.it
0%;	 8;	 0.11;	 www.galto.info
0%;	 8;	 0.11;	 www.distrettoappenninomeridionale.it
0%;	 8;	 0.11;	 www.asmbasilicata.it
0%;	 9;	 0.12;	 www.aspfe.it
0%;	 9;	 0.12;	 www.abamc.it
0%;	 9;	 0.12;	 www.accademiabelleartiba.it
0%;	 9;	 0.12;	 www.accademiadiurbino.it
0%;	 10;	 0.14;	 presidenti-medicina.it
0%;	 10;	 0.14;	 www.ansf.gov.it
0%;	 11;	 0.15;	 www.torino.aci.it
0%;	 11;	 0.15;	 www.pisa.aci.it
0%;	 12;	 0.17;	 www.capritourism.com
0%;	 12;	 0.17;	 rossisidoli.com
0%;	 13;	 0.18;	 www.acselspa.it
0%;	 13;	 0.18;	 abamc.it
0%;	 13;	 0.18;	 www.laquila.aci.it
0%;	 14;	 0.19;	 www.actre.it
0%;	 14;	 0.19;	 www.acerbologna.it
0%;	 14;	 0.19;	 www.grosseto.aci.it
0%;	 15;	 0.21;	 asfo.sanita.fvg.it
0%;	 15;	 0.21;	 accademiadellacrusca.it
0%;	 15;	 0.21;	 www.rimini.aci.it
0%;	 15;	 0.21;	 www.asrem.gov.it
0%;	 16;	 0.22;	 www.caserta.aci.it
0%;	 16;	 0.22;	 www.varese.aci.it
0%;	 16;	 0.22;	 www.lecco.aci.it
0%;	 16;	 0.22;	 www.messina.aci.it
0%;	 16;	 0.22;	 www.cosenza.aci.it
0%;	 16;	 0.22;	 www.napoli.aci.it
0%;	 18;	 0.25;	 www.acravenna.it
0%;	 18;	 0.25;	 www.benevento.aci.it
0%;	 19;	 0.26;	 www.aspsirch.it
0%;	 19;	 0.26;	 www.asp.cl.it
0%;	 20;	 0.28;	 www.salerno.aci.it
0%;	 20;	 0.28;	 www.latina.aci.it
0%;	 22;	 0.30;	 www.genova.aci.it
0%;	 24;	 0.33;	 www.amgenergia.it
0%;	 25;	 0.35;	 www.ato1acquepiemonte.it
0%;	 25;	 0.35;	 www.consorzioacem.it
0%;	 25;	 0.35;	 www.aziendacasa.fc.it
0%;	 26;	 0.36;	 www.aeci.it
0%;	 27;	 0.37;	 fraktion.it
0%;	 27;	 0.37;	 www.fraktion.it
0%;	 28;	 0.39;	 www.apspvallarsa.it
0%;	 28;	 0.39;	 www.adisurcampania.it
0%;	 28;	 0.39;	 accademiavenezia.it
0%;	 30;	 0.42;	 www.aspromagnafaentina.it
0%;	 30;	 0.42;	 www.pistoia.aci.it
0%;	 31;	 0.43;	 www.asp.siena.it
0%;	 31;	 0.43;	 www.asp.rc.it
0%;	 32;	 0.44;	 www.autobrennero.it
0%;	 32;	 0.44;	 www.accademiavenezia.it
0%;	 32;	 0.44;	 asp.rc.it
0%;	 36;	 0.50;	 www.cuneo.aci.it
0%;	 37;	 0.51;	 www.roma.aci.it
0%;	 37;	 0.51;	 www.aci.it
0%;	 38;	 0.53;	 www.reggiocalabria.aci.it
0%;	 39;	 0.54;	 www.asp.rg.it
0%;	 43;	 0.60;	 www.collegiomorigi.it
0%;	 44;	 0.61;	 www.aspct.it
0%;	 46;	 0.64;	 www.agcm.it
0%;	 55;	 0.76;	 www.atac-civitanova.it
0%;	 56;	 0.78;	 www.4daurianosengo.edu.it
0%;	 64;	 0.89;	 www.uslumbria2.it
0%;	 66;	 0.91;	 www.altenheim-stwalburg.it
0%;	 73;	 1.01;	 www.anci.emilia-romagna.it
0%;	 113;	 1.56;	 www.acimodena.it
0%;	 127;	 1.76;	 www.agenziapiemontelavoro.it
0%;	 127;	 1.76;	 agenziapiemontelavoro.it
0%;	 356;	 4.93;	 www.arera.it
